timestamp;rms1;rms2;rms3
21:06:49.151;0.4312;0.835;2.512
21:06:49.651;0.4309;0.831;2.513
21:06:50.151;0.4308;0.833;2.51
21:06:50.650;0.4311;0.837;2.512
21:06:51.151;0.4311;0.84;2.513
21:06:51.651;0.4307;0.832;2.511
21:06:52.150;0.4306;0.837;2.51
21:06:52.650;0.4311;0.84;2.51
21:06:53.150;0.4306;0.834;2.51
21:06:53.651;0.4307;0.837;2.51
21:06:54.151;0.4309;0.839;2.512
21:06:54.651;0.4312;0.836;2.512
21:06:55.151;0.4305;0.834;2.511
21:06:55.652;0.4308;0.839;2.512
21:06:56.152;0.4308;0.835;2.512
21:06:56.651;0.4311;0.836;2.513
21:06:57.151;0.4309;0.839;2.511
21:06:57.652;0.4309;0.835;2.512
21:06:58.152;0.4314;0.836;2.511
21:06:58.651;0.431;0.833;2.511
21:06:59.151;0.4313;0.836;2.512
-----
21:06:59.651;0.4306;1.116;2.511
21:07:00.152;0.4305;1.379;2.51
21:07:00.651;0.4309;1.239;2.53
21:07:01.151;0.4312;1.133;2.539
21:07:01.651;0.4313;1.189;2.541
21:07:02.151;0.4307;1.192;2.541
21:07:02.651;0.4311;1.248;2.54
21:07:03.150;0.4309;0.906;2.536
21:07:03.650;0.4308;1.168;2.539
21:07:04.150;0.4307;1.25;2.54
21:07:04.651;0.4307;0.951;2.54
21:07:05.151;0.4308;1.213;2.542
21:07:05.652;0.431;1.149;2.542
21:07:06.150;0.4309;1.174;2.54
21:07:06.651;0.431;1.252;2.541
21:07:07.151;0.431;1.04;2.536
21:07:07.651;0.4313;1.219;2.54
21:07:08.151;0.4312;1.176;2.541
21:07:08.652;0.4308;0.901;2.534
21:07:09.150;0.4308;0.902;2.535
21:07:09.650;0.4311;1.255;2.541
21:07:10.150;0.4306;1.212;2.54
21:07:10.651;0.4306;1.198;2.541
21:07:11.150;0.4309;1.081;2.54
21:07:11.651;0.4306;0.9777;2.538
21:07:12.151;0.4308;1.253;2.54
21:07:12.651;0.431;1.245;2.542
21:07:13.152;0.4303;1.129;2.541
21:07:13.652;0.431;1.18;2.542
21:07:14.151;0.431;0.923;2.539
21:07:14.651;0.4308;1.251;2.539
21:07:15.151;0.4311;1.227;2.537
21:07:15.651;0.4308;1.187;2.541
21:07:16.151;0.4306;1.246;2.54
21:07:16.651;0.4307;0.93;2.539
21:07:17.151;0.4307;1.247;2.54
21:07:17.651;0.4313;1.116;2.538
21:07:18.152;0.4308;1.149;2.541
21:07:18.651;0.4308;1.376;2.541
21:07:19.151;0.4313;1.286;2.539
21:07:19.652;0.4309;1.313;2.54
21:07:20.151;0.4307;1.041;2.538
21:07:20.651;0.4303;1.103;2.54
21:07:21.152;0.4308;1.252;2.54
21:07:21.651;0.4307;1.037;2.54
21:07:22.151;0.4303;1.228;2.54
21:07:22.652;0.4303;1.029;2.54
21:07:23.151;0.4302;1.189;2.541
21:07:23.652;0.4304;1.25;2.54
21:07:24.150;0.4302;0.953;2.537
21:07:24.651;0.43;0.907;2.537
21:07:25.152;0.43;1.249;2.541
21:07:25.650;0.4301;1.219;2.537
21:07:26.151;0.4302;0.899;2.537
21:07:26.652;0.4302;1.168;2.542
21:07:27.150;0.4299;1.252;2.54
21:07:27.650;0.4305;0.941;2.536
21:07:28.150;0.4306;1.253;2.541
21:07:28.651;0.4302;1.249;2.54
21:07:29.153;0.4305;1.292;2.54
21:07:29.651;0.4302;1.246;2.54
21:07:30.151;0.4304;0.972;2.538
21:07:30.651;0.4305;1.25;2.54
21:07:31.152;0.4309;1.238;2.541
21:07:31.651;0.4305;1.265;2.54
21:07:32.151;0.4303;1.188;2.541
21:07:32.651;0.4302;0.978;2.539
21:07:33.152;0.4307;1.24;2.54
21:07:33.651;0.4303;1.197;2.541
21:07:34.151;0.4301;1.116;2.54
21:07:34.652;0.43;1.167;2.54
21:07:35.151;0.4303;0.933;2.539
21:07:35.652;0.4302;1.178;2.54
21:07:36.151;0.4305;1.128;2.54
21:07:36.651;0.4308;0.937;2.537
21:07:37.151;0.4298;1.054;2.541
21:07:37.652;0.4305;1.195;2.539
21:07:38.151;0.4303;1.194;2.541
21:07:38.651;0.4303;1.189;2.542
21:07:39.151;0.4304;1.029;2.54
21:07:39.652;0.43;1.141;2.54
21:07:40.151;0.4307;1.184;2.54
21:07:40.651;0.4299;1.252;2.541
21:07:41.151;0.43;1.253;2.541
21:07:41.650;0.4302;1.221;2.542
21:07:42.151;0.4305;1.137;2.54
21:07:42.651;0.4301;1.028;2.538
21:07:43.151;0.4298;1.205;2.54
21:07:43.650;0.4295;1.191;2.541
21:07:44.150;0.4301;1.207;2.541
21:07:44.650;0.4299;1.251;2.541
21:07:45.150;0.4302;1.226;2.54
21:07:45.650;0.4302;1.23;2.542
21:07:46.151;0.4298;1.229;2.54
21:07:46.652;0.4303;1.203;2.54
21:07:47.152;0.4299;1.239;2.541
21:07:47.651;0.4302;0.915;2.54
21:07:48.151;0.4302;1.248;2.54
21:07:48.652;0.4301;1.193;2.54
21:07:49.151;0.43;1.194;2.54
21:07:49.651;0.4299;1.189;2.541
21:07:50.151;0.4303;0.905;2.541
21:07:50.652;0.4298;1.191;2.542
21:07:51.152;0.4307;1.202;2.54
21:07:51.651;0.4303;1.194;2.542
21:07:52.151;0.43;1.159;2.54
21:07:52.651;0.4304;0.899;2.539
21:07:53.152;0.4292;1.249;2.542
21:07:53.651;0.4301;1.11;2.541
21:07:54.151;0.4305;1.045;2.541
21:07:54.651;0.4304;1.252;2.541
21:07:55.151;0.4303;0.941;2.539
21:07:55.652;0.4301;1.195;2.541
21:07:56.151;0.4298;1.191;2.542
21:07:56.651;0.4303;1.184;2.541
21:07:57.152;0.4304;1.174;2.541
21:07:57.652;0.43;0.973;2.54
21:07:58.150;0.4299;1.194;2.541
21:07:58.650;0.4299;1.199;2.54
