timestamp;rms1;rms2;rms3
20:18:15.151;0.4386;0.836;2.513
20:18:15.651;0.438;0.834;2.511
20:18:16.152;0.438;0.831;2.51
20:18:16.652;0.4381;0.833;2.512
20:18:17.151;0.4383;0.833;2.513
20:18:17.651;0.4382;0.835;2.512
20:18:18.151;0.4376;0.835;2.511
20:18:18.651;0.4372;0.835;2.512
20:18:19.152;0.4373;0.832;2.513
20:18:19.651;0.4376;0.836;2.512
20:18:20.151;0.4381;0.8354;2.511
20:18:20.652;0.4383;0.832;2.512
20:18:21.152;0.438;0.8246;2.511
20:18:21.651;0.4382;0.829;2.511
20:18:22.151;0.4385;0.831;2.512
20:18:22.651;0.4385;0.83;2.512
20:18:23.152;0.4383;0.834;2.51
20:18:23.652;0.4382;0.832;2.51
20:18:24.150;0.4387;0.83;2.512
20:18:24.650;0.4383;0.83;2.514
20:18:25.150;0.438;0.829;2.512
-----
20:18:25.651;0.4386;0.89;2.513
20:18:26.151;0.4382;1.197;2.54
20:18:26.651;0.4379;1.256;2.542
20:18:27.150;0.4383;1.199;2.54
20:18:27.650;0.4383;1.176;2.542
20:18:28.151;0.438;1.237;2.542
20:18:28.651;0.4382;1.27;2.543
20:18:29.150;0.4375;0.893;2.537
20:18:29.650;0.4386;1.098;2.541
20:18:30.151;0.4381;1.334;2.541
20:18:30.651;0.4386;0.91;2.538
20:18:31.150;0.4381;1.188;2.541
20:18:31.651;0.4382;1.228;2.54
20:18:32.152;0.4384;0.936;2.537
20:18:32.651;0.4384;0.891;2.538
20:18:33.152;0.4387;1.011;2.54
20:18:33.653;0.4381;1.232;2.541
20:18:34.151;0.4385;0.893;2.538
20:18:34.652;0.4387;0.894;2.538
20:18:35.151;0.4385;1.184;2.542
20:18:35.651;0.4385;1.232;2.541
20:18:36.152;0.4387;0.895;2.537
20:18:36.651;0.4382;1.233;2.541
20:18:37.151;0.4386;1.133;2.541
20:18:37.652;0.4386;0.898;2.537
20:18:38.151;0.4388;0.896;2.537
20:18:38.652;0.4383;1.235;2.543
20:18:39.151;0.438;1.16;2.54
20:18:39.651;0.4381;0.897;2.537
20:18:40.151;0.4385;1.184;2.542
20:18:40.650;0.4386;1.236;2.542
20:18:41.151;0.4389;0.891;2.537
20:18:41.651;0.4388;0.892;2.535
20:18:42.151;0.4386;1.191;2.54
20:18:42.651;0.4386;1.094;2.54
20:18:43.151;0.4382;0.901;2.537
20:18:43.652;0.4384;1.244;2.542
20:18:44.151;0.4382;1.176;2.54
20:18:44.650;0.4386;0.877;2.538
20:18:45.151;0.4384;0.895;2.538
20:18:45.652;0.4385;1.176;2.54
20:18:46.150;0.4385;1.31;2.541
20:18:46.650;0.4381;0.955;2.537
20:18:47.150;0.438;0.892;2.536
20:18:47.650;0.4381;1.292;2.542
20:18:48.150;0.4384;1.293;2.542
20:18:48.650;0.4385;0.899;2.54
20:18:49.151;0.4381;1.201;2.54
20:18:49.651;0.4383;1.176;2.541
20:18:50.151;0.4382;1.081;2.538
20:18:50.651;0.4379;0.94;2.537
20:18:51.152;0.438;1.178;2.542
20:18:51.652;0.4376;1.237;2.541
20:18:52.151;0.4381;0.929;2.536
20:18:52.651;0.4384;0.958;2.54
20:18:53.151;0.4378;1.173;2.542
20:18:53.651;0.438;1.16;2.539
20:18:54.152;0.4381;0.889;2.537
20:18:54.651;0.4373;1.1;2.542
20:18:55.151;0.4375;1.154;2.541
20:18:55.651;0.4383;0.889;2.537
20:18:56.151;0.438;0.892;2.538
20:18:56.652;0.4379;1.238;2.541
20:18:57.151;0.4381;1.236;2.541
20:18:57.650;0.4381;0.897;2.538
20:18:58.150;0.4379;1.066;2.539
20:18:58.651;0.4381;1.237;2.542
20:18:59.152;0.4381;1.002;2.538
20:18:59.651;0.4375;0.898;2.537
20:19:00.151;0.4377;1.194;2.541
20:19:00.650;0.4376;1.178;2.541
20:19:01.151;0.4382;0.892;2.536
20:19:01.651;0.4374;0.895;2.537
20:19:02.151;0.4376;1.175;2.542
20:19:02.650;0.4378;1.172;2.54
20:19:03.151;0.4376;0.92;2.53
20:19:03.651;0.4375;1.211;2.541
20:19:04.150;0.4377;1.059;2.54
20:19:04.650;0.438;1.12;2.542
20:19:05.150;0.4377;1.01;2.541
20:19:05.651;0.4379;0.945;2.536
20:19:06.151;0.4382;1.163;2.541
20:19:06.651;0.4381;1.191;2.541
20:19:07.151;0.4379;0.885;2.537
20:19:07.651;0.4377;1.181;2.542
20:19:08.151;0.438;1.183;2.541
20:19:08.651;0.4378;0.904;2.536
20:19:09.151;0.4379;1.177;2.542
20:19:09.652;0.4381;1.171;2.542
20:19:10.151;0.438;0.9083;2.537
20:19:10.651;0.4376;1.238;2.541
20:19:11.151;0.4377;1.134;2.539
20:19:11.652;0.438;1.106;2.539
20:19:12.151;0.4384;1.08;2.54
20:19:12.651;0.4385;0.896;2.537
20:19:13.151;0.4387;1.098;2.541
20:19:13.651;0.438;1.139;2.543
20:19:14.152;0.4381;0.893;2.537
20:19:14.651;0.4383;1.179;2.54
20:19:15.151;0.4383;1.205;2.54
20:19:15.651;0.4383;0.895;2.536
20:19:16.151;0.4381;1.209;2.541
20:19:16.652;0.4384;1.177;2.541
20:19:17.151;0.4383;0.899;2.534
20:19:17.651;0.4379;1.177;2.54
20:19:18.150;0.438;1.181;2.54
20:19:18.651;0.4377;1.188;2.541
20:19:19.151;0.4377;1.202;2.541
20:19:19.651;0.4383;1.111;2.537
20:19:20.150;0.4381;1.238;2.541
20:19:20.651;0.4382;1.232;2.541
20:19:21.152;0.4385;1.055;2.536
20:19:21.651;0.4386;1.176;2.542
20:19:22.151;0.4382;1.121;2.542
20:19:22.650;0.4386;0.891;2.537
20:19:23.151;0.4385;1.183;2.541
20:19:23.650;0.4382;1.236;2.543
20:19:24.151;0.4382;0.896;2.54
20:19:24.651;0.4378;1.311;2.541
