timestamp;rms1;rms2;rms3
18:41:45.150;0.4378;0.831;2.514
18:41:45.650;0.4382;0.8294;2.515
18:41:46.150;0.4377;0.83;2.513
18:41:46.650;0.4381;0.83;2.515
18:41:47.151;0.4384;0.83;2.516
18:41:47.651;0.438;0.832;2.513
18:41:48.151;0.4383;0.831;2.513
18:41:48.651;0.4382;0.83;2.513
18:41:49.151;0.4381;0.83;2.514
18:41:49.651;0.4385;0.836;2.515
18:41:50.151;0.4379;0.835;2.515
18:41:50.651;0.438;0.835;2.514
18:41:51.151;0.4381;0.834;2.512
18:41:51.651;0.438;0.836;2.513
18:41:52.151;0.4384;0.83;2.514
18:41:52.651;0.4383;0.835;2.513
18:41:53.151;0.4378;0.832;2.515
18:41:53.651;0.4383;0.831;2.513
18:41:54.151;0.4385;0.8282;2.514
18:41:54.651;0.438;0.834;2.512
18:41:55.151;0.4379;0.83;2.514
-----
18:41:55.651;0.4384;0.833;2.512
18:41:56.151;0.4382;1.459;2.514
18:41:56.651;0.4381;1.364;2.514
18:41:57.150;0.438;1.435;2.542
18:41:57.650;0.4377;1.156;2.543
18:41:58.150;0.438;1.151;2.543
18:41:58.650;0.438;1.227;2.542
18:41:59.150;0.4378;0.954;2.539
18:41:59.650;0.4382;1.18;2.542
18:42:00.150;0.4382;1.231;2.54
18:42:00.650;0.4382;1.201;2.543
18:42:01.150;0.4379;1.221;2.542
18:42:01.650;0.4381;0.903;2.54
18:42:02.150;0.4379;1.234;2.543
18:42:02.650;0.4374;1.233;2.543
18:42:03.150;0.4381;1.23;2.543
18:42:03.650;0.4381;1.238;2.544
18:42:04.150;0.438;1.005;2.542
18:42:04.651;0.4376;1.21;2.541
18:42:05.151;0.4384;1.233;2.544
18:42:05.651;0.4378;1.17;2.543
18:42:06.151;0.4381;1.235;2.542
18:42:06.651;0.438;1.011;2.541
18:42:07.151;0.4377;1.234;2.543
18:42:07.651;0.4381;1.119;2.54
18:42:08.152;0.4376;1.203;2.543
18:42:08.652;0.4379;1.066;2.542
18:42:09.151;0.4379;1.148;2.541
18:42:09.651;0.4376;1.083;2.543
18:42:10.151;0.4378;1.175;2.539
18:42:10.651;0.4375;1.195;2.541
18:42:11.151;0.438;1.236;2.542
18:42:11.651;0.4383;1.148;2.541
18:42:12.150;0.438;1.232;2.543
18:42:12.650;0.4378;1.102;2.54
18:42:13.150;0.438;1.144;2.542
18:42:13.650;0.4376;1.198;2.543
18:42:14.150;0.438;1.158;2.542
18:42:14.650;0.4378;1.239;2.544
18:42:15.150;0.4376;1.056;2.54
18:42:15.650;0.4376;1.231;2.542
18:42:16.150;0.4379;1.223;2.542
18:42:16.650;0.4378;1.246;2.543
18:42:17.150;0.438;1.163;2.543
18:42:17.650;0.438;0.878;2.538
18:42:18.150;0.4379;1.185;2.543
18:42:18.650;0.4374;1.195;2.544
18:42:19.150;0.4378;0.891;2.541
18:42:19.650;0.4378;1.237;2.542
18:42:20.150;0.4383;1.231;2.542
18:42:20.650;0.4381;1.135;2.542
18:42:21.150;0.4379;1.221;2.543
18:42:21.650;0.4376;0.889;2.54
18:42:22.151;0.4382;1.216;2.543
18:42:22.651;0.4382;1.187;2.543
18:42:23.151;0.4379;1.119;2.542
18:42:23.652;0.4377;1.182;2.543
18:42:24.153;0.4377;1.224;2.543
18:42:24.651;0.4381;1.116;2.543
18:42:25.151;0.4381;1.25;2.541
18:42:25.651;0.4385;1.148;2.542
18:42:26.151;0.4382;1.237;2.542
18:42:26.651;0.4385;1.166;2.541
18:42:27.151;0.4382;1.187;2.543
18:42:27.651;0.4382;1.196;2.543
18:42:28.151;0.4384;1.146;2.543
18:42:28.651;0.4387;1.149;2.544
18:42:29.151;0.4383;1.021;2.538
18:42:29.651;0.4382;1.168;2.544
18:42:30.151;0.4381;1.218;2.542
18:42:30.650;0.4383;1.002;2.543
18:42:31.150;0.4384;1.206;2.543
18:42:31.650;0.4382;1.237;2.54
18:42:32.150;0.4389;1.236;2.542
18:42:32.650;0.4384;1.17;2.544
18:42:33.150;0.4386;1.18;2.544
18:42:33.650;0.4385;1.14;2.542
18:42:34.150;0.4387;1.007;2.54
18:42:34.650;0.4385;1.085;2.542
18:42:35.150;0.4386;1.238;2.544
18:42:35.650;0.4384;1.177;2.544
18:42:36.150;0.4381;1.154;2.542
18:42:36.650;0.4388;0.949;2.54
18:42:37.151;0.4387;1.237;2.542
18:42:37.652;0.4381;1.16;2.543
18:42:38.150;0.4384;1.19;2.543
18:42:38.650;0.4384;1.034;2.544
18:42:39.150;0.4386;1.032;2.539
18:42:39.651;0.4384;1.133;2.542
18:42:40.151;0.4384;1.171;2.542
18:42:40.651;0.4385;1.189;2.543
18:42:41.151;0.4383;1.128;2.543
18:42:41.651;0.4389;0.897;2.542
18:42:42.151;0.4383;1.174;2.541
18:42:42.651;0.4389;1.181;2.543
18:42:43.151;0.4386;1.178;2.542
18:42:43.651;0.4385;1.18;2.544
18:42:44.151;0.4383;0.905;2.54
18:42:44.651;0.4383;1.197;2.543
18:42:45.151;0.4381;1.181;2.543
18:42:45.651;0.4385;1.179;2.543
18:42:46.151;0.4384;1.235;2.544
18:42:46.651;0.4381;0.903;2.541
18:42:47.151;0.4384;1.177;2.543
18:42:47.651;0.4383;1.014;2.541
18:42:48.151;0.4384;1.108;2.542
18:42:48.651;0.4385;1.223;2.542
18:42:49.151;0.4383;0.995;2.541
18:42:49.650;0.4386;1.197;2.543
18:42:50.150;0.4385;1.188;2.542
18:42:50.650;0.4381;1.241;2.541
18:42:51.150;0.4386;1.236;2.542
18:42:51.650;0.4384;1.112;2.54
18:42:52.150;0.4388;1.23;2.542
18:42:52.650;0.4382;1.215;2.541
18:42:53.150;0.4383;1.173;2.543
18:42:53.650;0.4384;1.178;2.542
18:42:54.151;0.4385;1.142;2.541
18:42:54.651;0.4384;1.168;2.542
18:42:55.150;0.4386;0.959;2.537
18:42:55.650;0.4381;0.897;2.537
