timestamp;rms1;rms2;rms3
20:23:37.151;0.4383;0.833;2.514
20:23:37.652;0.4383;0.833;2.512
20:23:38.152;0.4385;0.83;2.512
20:23:38.650;0.4385;0.831;2.514
20:23:39.150;0.4384;0.832;2.513
20:23:39.651;0.4381;0.8302;2.512
20:23:40.152;0.4383;0.8275;2.512
20:23:40.651;0.4387;0.831;2.513
20:23:41.150;0.4385;0.831;2.511
20:23:41.650;0.4382;0.83;2.512
20:23:42.150;0.4386;0.832;2.51
20:23:42.651;0.4384;0.829;2.512
20:23:43.151;0.438;0.832;2.511
20:23:43.650;0.439;0.834;2.513
20:23:44.150;0.4387;0.83;2.513
20:23:44.650;0.4387;0.832;2.512
20:23:45.150;0.438;0.828;2.512
20:23:45.650;0.4382;0.832;2.512
20:23:46.151;0.4381;0.832;2.512
20:23:46.652;0.4379;0.8292;2.511
20:23:47.151;0.4376;0.839;2.512
-----
20:23:47.651;0.4379;1.09;2.535
20:23:48.152;0.4385;1.235;2.541
20:23:48.651;0.4385;1.153;2.542
20:23:49.152;0.4386;1.235;2.542
20:23:49.651;0.4381;1.21;2.54
20:23:50.151;0.4387;1.234;2.541
20:23:50.651;0.4384;1.016;2.537
20:23:51.151;0.4385;0.896;2.537
20:23:51.651;0.4384;1.221;2.542
20:23:52.151;0.4388;1.243;2.54
20:23:52.651;0.4387;0.905;2.536
20:23:53.151;0.4387;1.163;2.54
20:23:53.651;0.4386;1.23;2.542
20:23:54.151;0.4384;0.902;2.537
20:23:54.651;0.4389;0.989;2.541
20:23:55.151;0.4384;1.237;2.54
20:23:55.652;0.4384;1.085;2.536
20:23:56.151;0.4387;0.895;2.536
20:23:56.650;0.4385;1.168;2.542
20:23:57.150;0.4386;1.178;2.541
20:23:57.651;0.4386;0.909;2.537
20:23:58.152;0.4383;0.884;2.537
20:23:58.651;0.4386;1.139;2.541
20:23:59.150;0.4385;1.224;2.542
20:23:59.650;0.4387;0.897;2.537
20:24:00.151;0.4391;1.219;2.542
20:24:00.652;0.4386;1.235;2.541
20:24:01.150;0.4388;0.893;2.537
20:24:01.650;0.4387;0.89;2.537
20:24:02.150;0.4388;1.237;2.541
20:24:02.650;0.4386;1.233;2.542
20:24:03.150;0.4386;1.108;2.539
20:24:03.650;0.4385;1.249;2.542
20:24:04.151;0.4387;1.232;2.541
20:24:04.652;0.4387;0.884;2.537
20:24:05.152;0.4382;1.235;2.541
20:24:05.651;0.4386;1.157;2.541
20:24:06.151;0.438;0.881;2.536
20:24:06.652;0.4383;0.895;2.537
20:24:07.152;0.4385;1.167;2.541
20:24:07.651;0.4387;1.241;2.544
20:24:08.151;0.4387;0.891;2.537
20:24:08.652;0.4386;1.24;2.54
20:24:09.151;0.4383;1.232;2.541
20:24:09.651;0.4388;0.893;2.537
20:24:10.151;0.4385;1.217;2.541
20:24:10.651;0.4388;1.158;2.538
20:24:11.151;0.439;0.924;2.537
20:24:11.652;0.4382;1.111;2.54
20:24:12.151;0.4389;1.173;2.538
20:24:12.651;0.4385;1.229;2.54
20:24:13.150;0.4384;1.234;2.541
20:24:13.650;0.4384;0.886;2.538
20:24:14.150;0.4387;1.021;2.542
20:24:14.650;0.4382;1.134;2.541
20:24:15.150;0.4387;0.887;2.538
20:24:15.650;0.4386;1.193;2.542
20:24:16.150;0.4381;1.23;2.542
20:24:16.650;0.4386;0.889;2.537
20:24:17.150;0.4389;1.071;2.543
20:24:17.651;0.4383;1.219;2.543
20:24:18.151;0.4387;0.893;2.536
20:24:18.651;0.4386;1.226;2.542
20:24:19.150;0.4383;1.198;2.542
20:24:19.650;0.4382;0.903;2.537
20:24:20.151;0.4386;1.201;2.542
20:24:20.650;0.4387;1.097;2.541
20:24:21.150;0.4385;0.918;2.538
20:24:21.651;0.438;1.165;2.541
20:24:22.151;0.4386;1.197;2.537
20:24:22.652;0.4384;1.069;2.539
20:24:23.152;0.4386;1.14;2.54
20:24:23.651;0.4383;1.054;2.537
20:24:24.152;0.4388;1.109;2.543
20:24:24.652;0.4388;1.237;2.542
20:24:25.151;0.4383;1.102;2.536
20:24:25.651;0.4385;1.218;2.542
20:24:26.151;0.4376;1.131;2.542
20:24:26.651;0.4386;0.893;2.538
20:24:27.151;0.4387;1.188;2.543
20:24:27.652;0.4385;1.184;2.542
20:24:28.151;0.4387;1.021;2.541
20:24:28.652;0.4385;1.179;2.542
20:24:29.152;0.4384;0.978;2.538
20:24:29.651;0.4384;1.114;2.543
20:24:30.151;0.4385;1.125;2.542
20:24:30.650;0.439;0.902;2.54
20:24:31.151;0.4389;1.142;2.541
20:24:31.651;0.4385;1.133;2.542
20:24:32.151;0.4392;0.932;2.539
20:24:32.651;0.439;1.176;2.543
20:24:33.150;0.4389;1.223;2.542
20:24:33.651;0.4384;1.2;2.543
20:24:34.151;0.4389;1.062;2.542
20:24:34.651;0.4388;0.894;2.539
20:24:35.151;0.4388;1.104;2.542
20:24:35.652;0.4387;1.18;2.543
20:24:36.150;0.4386;0.888;2.539
20:24:36.650;0.4388;1.228;2.541
20:24:37.150;0.4385;1.186;2.542
20:24:37.650;0.4385;0.885;2.537
20:24:38.150;0.4391;1.319;2.542
20:24:38.650;0.4388;1.162;2.54
20:24:39.151;0.4383;1.103;2.541
20:24:39.651;0.4389;1.185;2.542
20:24:40.152;0.4387;1.004;2.538
20:24:40.651;0.4385;1.235;2.542
20:24:41.151;0.4384;1.182;2.543
20:24:41.651;0.4388;0.896;2.538
20:24:42.152;0.4384;1.126;2.543
20:24:42.652;0.4388;1.194;2.542
20:24:43.151;0.4389;0.892;2.537
20:24:43.651;0.4384;1.181;2.543
20:24:44.151;0.4387;1.195;2.541
20:24:44.651;0.4382;0.882;2.538
20:24:45.152;0.4379;1.179;2.541
20:24:45.651;0.4381;1.06;2.537
20:24:46.151;0.4385;1.192;2.542
20:24:46.651;0.4387;1.237;2.543
