1490933003.477039,145
1490933008.444926,151
1490933013.093797,149
1490933018.696091,147
1490933024.951405,140
1490933029.838888,137
1490933034.18366,155
1490933039.266827,145
1490933044.127321,130
1490933049.091653,140
1490933055.177641,161
1490933061.931956,132
1490933066.925027,156
1490933071.168958,134
1490933075.873831,137
1490933079.304637,138
1490933083.563417,147
1490933085.476608,150
1490933086.780321,134
1490933088.369432,148
1490933091.425605,135
1490933092.781695,132
1490933094.097323,131
1490933095.260298,131
1490933097.218429,133
