1490937445.032414,134
1490937450.988946,143
1490937455.969552,147
1490937460.156673,139
1490937464.947421,134
1490937468.529839,143
1490937473.072175,127
1490937477.911589,154
1490937481.386697,134
1490937486.943651,142
1490937490.23284,144
1490937495.298261,146
1490937499.245287,164
1490937504.978267,149
1490937510.059169,157
1490937514.315648,142
1490937519.092628,165
1490937523.986273,136
1490937528.543992,141
1490937533.696048,138
1490937538.403323,129
1490937543.590504,140
1490937545.117265,130
1490937547.107835,152
1490937548.60402,136
