1490927771.616373,137
1490927775.519884,129
1490927779.031283,131
1490927784.703605,135
1490927789.917671,138
1490927795.158292,144
1490927799.488001,132
1490927804.812031,131
1490927809.692586,151
1490927811.276942,128
1490927812.771507,147
1490927814.443389,145
1490927815.887141,172
1490927817.691031,146
1490927819.661763,160
1490927821.484843,137
1490927822.880295,150
1490927824.574315,162
1490927826.848062,148
1490927828.302162,154
1490927829.950236,143
1490927832.139958,141
1490927836.083417,156
1490927840.894838,147
1490927845.597865,138
