1490925570.926781,139
1490925576.013463,147
1490925581.183555,158
1490925586.057443,141
1490925590.032408,142
1490925595.342179,140
1490925600.166956,140
1490925606.439036,139
1490925612.429488,164
1490925618.248051,138
1490925623.204291,140
1490925628.259543,165
1490925633.577832,135
1490925638.126641,144
1490925644.042315,137
1490925650.106407,128
1490925655.368662,141
1490925659.841554,144
1490925664.345966,141
1490925669.480287,133
1490925675.255881,153
1490925681.144684,134
1490925685.531647,148
1490925690.137539,134
1490925696.204569,130
