Write10-75GB
149092307 - 149092319
Write10-75GB
149092387 - 149092399
Write10-75GB
149092413 - 149092426
1490924136.419972,140
1490924137.437321,139
1490924139.41504,160
1490924141.018722,167
1490924142.646764,139
1490924144.184897,145
1490924145.909282,126
1490924147.361126,139
1490924148.646735,149
1490924149.924365,135
1490924151.967092,145
1490924153.236133,144
1490924155.020757,156
1490924157.303624,158
1490924158.44826,144
1490924160.15906,144
1490924161.485064,138
1490924163.486346,146
1490924164.722222,135
1490924166.061085,133
1490924167.674262,136
1490924169.766522,135
1490924171.104337,130
1490924172.778219,140
1490924174.132372,144
1490924176.151858,130
1490924177.836384,129
1490924179.084095,126
1490924180.781132,129
1490924182.719964,135
1490924183.887531,130
1490924185.010179,132
1490924186.368279,155
1490924188.595917,159
1490924189.793954,147
1490924191.414211,132
1490924193.775209,138
1490924195.084249,132
1490924196.599772,138
1490924197.993701,128
1490924200.169407,141
1490924201.901558,144
1490924203.427833,134
1490924205.566577,147
1490924206.90289,142
1490924208.432625,138
1490924209.896043,140
1490924211.820001,136
1490924213.36322,139
1490924214.665223,142
1490924216.047831,154
1490924217.937802,136
1490924219.624639,164
1490924220.892624,171
1490924222.076674,137
1490924224.555848,136
1490924226.088149,136
1490924227.419366,132
1490924229.473569,151
1490924231.003856,146
1490924232.728534,138
Write10-75GB
149092456 - 149092468
Write10-75GB
149092470 - 149092483
1490924816.852802,135
1490924818.197137,139
1490924820.271659,134
1490924821.534916,135
1490924823.126969,136
1490924824.44811,142
1490924826.582492,143
1490924827.756707,151
1490924829.170487,149
1490924830.979048,127
Write10-75GB
149092628 - 149092641
1490926289.059727,134
1490926290.521847,141
1490926292.2114,144
1490926293.636186,140
1490926295.565876,137
1490926297.11373,145
1490926298.470954,138
1490926299.77246,170
1490926301.806341,171
1490926303.000371,140
1490926304.236525,145
1490926305.751154,148
1490926307.994871,141
1490926309.345296,139
1490926310.90268,135
1490926312.102282,147
1490926314.103173,134
1490926315.579563,169
1490926316.914529,163
1490926318.358308,148
1490926320.426546,142
1490926321.84218,150
1490926323.247235,132
1490926324.954288,140
1490926326.584931,154
1490926328.068925,143
1490926329.413321,126
1490926331.496446,164
1490926333.047323,158
1490926334.410139,141
1490926335.666802,131
1490926337.803765,128
1490926339.608262,140
1490926341.016815,131
1490926343.103136,146
1490926344.516987,131
1490926345.83645,142
1490926347.437502,166
1490926349.472198,158
1490926351.165511,136
1490926352.747086,146
1490926354.49234,144
1490926356.394525,138
1490926358.170473,137
1490926359.534095,135
1490926361.017367,149
1490926363.107909,144
1490926364.666588,139
1490926366.11663,145
1490926368.128475,130
1490926369.43324,139
1490926370.757779,151
1490926372.120331,142
1490926374.500409,150
1490926376.017676,125
1490926377.43753,140
1490926379.432299,163
1490926381.151651,153
1490926382.641293,140
1490926383.910481,129
1490926385.926488,157
1490926387.596685,131
1490926388.94553,146
1490926390.416627,124
1490926392.553318,126
1490926394.014076,142
1490926395.652231,169
1490926397.631647,173
1490926399.031711,140
1490926400.549816,136
1490926401.958243,140
1490926404.269604,136
1490926405.435899,137
1490926406.888049,137
1490926408.337646,142
1490926410.575918,148
1490926412.110147,149
1490926413.293192,150
1490926414.935975,130
Write10-75GB
149092686 - 149092698
Write10-75GB
149092814 - 149092826
Write10-75GB
149092842 - 149092855
1490928525.805237,137
1490928527.45058,139
1490928529.081718,136
1490928531.00012,144
1490928532.59474,123
1490928534.043967,136
1490928535.77866,169
1490928537.835532,136
1490928539.086923,133
1490928540.270463,130
1490928541.391794,133
1490928543.680457,134
1490928545.007329,140
1490928546.39557,134
1490928548.64866,133
1490928550.09338,138
1490928551.759513,132
1490928553.163682,132
Write10-75GB
149092871 - 149092883
Write10-75GB
149092885 - 149092897
Write10-75GB
149092985 - 149092997
Write10-75GB
149093215 - 149093227
1490932252.253521,174
1490932254.146434,151
1490932255.363613,140
1490932256.692663,134
1490932257.850225,128
1490932260.136938,131
1490932261.51349,136
1490932262.945816,131
1490932264.17226,141
1490932265.946458,135
1490932267.12573,141
1490932268.373725,165
1490932269.67257,150
1490932271.710702,134
1490932273.30852,126
1490932274.473062,132
1490932275.644406,145
Write10-75GB
149093229 - 149093241
1490932292.446005,125
1490932293.798017,144
1490932295.874722,147
1490932297.215686,141
1490932298.684888,165
1490932299.815133,170
1490932301.820402,150
1490932303.212786,139
1490932304.254597,136
1490932305.439783,146
1490932306.783221,149
1490932308.583043,139
1490932310.226395,144
1490932311.408031,127
1490932312.897031,146
1490932314.715243,136
1490932316.010044,146
1490932317.311435,130
1490932318.766582,134
1490932320.741312,142
1490932322.415405,141
1490932324.144995,137
1490932326.330179,136
1490932327.839814,133
1490932329.182707,134
1490932330.76422,141
1490932332.92105,131
1490932334.057861,134
1490932335.295701,134
1490932336.399811,138
1490932338.047527,137
1490932339.047642,144
1490932340.274821,133
1490932341.406684,133
1490932342.89829,131
1490932344.872201,136
1490932346.387678,136
1490932347.746067,164
1490932349.735671,159
1490932351.112909,125
1490932352.237142,133
1490932353.642133,132
1490932355.608773,147
1490932357.102245,134
1490932358.566722,135
1490932359.735037,136
1490932361.137358,143
1490932362.697883,137
1490932363.973341,153
1490932365.297802,163
1490932366.551536,130
1490932368.592689,145
1490932370.002082,140
1490932371.223491,144
1490932372.657321,152
1490932374.826527,137
1490932376.183654,137
1490932377.646701,141
1490932378.817325,162
1490932381.140948,169
1490932382.369428,144
1490932383.556681,149
1490932384.815266,136
1490932386.591908,139
1490932387.938121,146
1490932389.227631,128
1490932390.448234,131
1490932392.748552,134
1490932394.026644,136
1490932395.308495,156
1490932396.684076,161
1490932398.591715,140
1490932399.956591,129
Write10-75GB
149093243 - 149093256
Write10-75GB
149093257 - 149093270
Write10-75GB
149093314 - 149093327
Write10-75GB
149093414 - 149093427
Write10-75GB
149093428 - 149093441
Write10-75GB
149093457 - 149093470
1490934576.026483,131
1490934577.945103,139
1490934579.712897,131
1490934581.288485,135
1490934582.656019,138
1490934584.972577,141
1490934586.589199,171
1490934587.867766,133
1490934589.553293,145
1490934591.230432,149
1490934592.744993,142
1490934593.923031,143
1490934596.236487,134
1490934597.685866,148
1490934598.963214,141
1490934600.18937,140
1490934602.661175,154
1490934603.96491,138
1490934605.604891,133
Write10-75GB
149093529 - 149093542
1490935295.220348,165
1490935296.77507,176
1490935298.250998,148
1490935300.398052,141
1490935301.836672,135
1490935303.253642,147
1490935304.668077,164
1490935306.886009,146
1490935308.502711,132
1490935309.754823,144
1490935311.114407,139
1490935313.16028,143
1490935314.434625,143
1490935315.745377,132
1490935317.259277,127
1490935319.388825,139
1490935320.631127,152
1490935321.973253,137
1490935323.559939,141
1490935325.695294,139
1490935327.058711,145
1490935328.412081,143
1490935330.689933,141
1490935332.095313,138
1490935333.292918,134
1490935334.730624,139
1490935336.59523,132
1490935337.979176,145
1490935339.408642,167
1490935341.016539,178
Write10-75GB
149093543 - 149093556
Write10-75GB
149093557 - 149093570
Write10-75GB
149093571 - 149093584
Write10-75GB
149093629 - 149093642
Write10-75GB
149093658 - 149093671
1490936653.969049,142
1490936656.385255,147
1490936657.889122,152
1490936659.548552,153
1490936661.478363,133
1490936662.949851,137
1490936664.245097,142
1490936665.73512,142
1490936667.861528,147
1490936669.096162,143
1490936670.587296,138
1490936672.029016,142
1490936673.827447,151
1490936675.146345,150
1490936676.648072,145
1490936677.862207,139
1490936679.950047,141
1490936681.448605,139
1490936682.97839,159
1490936684.519547,148
1490936686.487171,127
1490936687.797314,137
1490936689.30917,127
1490936690.390912,132
1490936692.44851,129
1490936693.911647,143
1490936694.934952,135
1490936696.57196,129
1490936698.659645,136
1490936699.933706,137
1490936701.518964,140
1490936703.598009,132
1490936705.775102,137
1490936707.659192,134
1490936709.744959,136
1490936711.392968,135
1490936712.930548,135
Write10-75GB
149093730 - 149093742
1490937388.100171,143
1490937390.098463,143
1490937391.821446,141
1490937393.128637,135
1490937395.117956,153
1490937396.924654,138
1490937398.245839,142
1490937399.510815,138
1490937401.730651,132
1490937403.068164,144
1490937404.399877,170
1490937405.810762,156
1490937408.111523,136
1490937409.175976,131
1490937410.500733,134
1490937411.570537,143
1490937412.901218,140
1490937414.921864,136
1490937416.506252,129
1490937417.507908,135
1490937418.787141,165
1490937420.779185,170
1490937422.4462,141
1490937423.776988,131
1490937426.000408,135
1490937427.210224,134
1490937428.596604,136
1490937429.924436,146
Write10-75GB
149093901 - 149093914
Write10-75GB
149094001 - 149094014
Write10-75GB
149094044 - 149094057
Write10-75GB
149094101 - 149094114
Write10-75GB
149094115 - 149094128
