timestamp;rms1;rms2;rms3
15:26:43.241;0.4334;0.8349;2.512
15:26:43.741;0.4327;0.8391;2.512
15:26:44.241;0.4325;0.834;2.513
15:26:44.740;0.4323;0.829;2.511
15:26:45.240;0.433;0.834;2.512
15:26:45.740;0.4328;0.836;2.511
15:26:46.240;0.4332;0.8275;2.513
15:26:46.741;0.4329;0.829;2.511
15:26:47.241;0.4333;0.831;2.512
15:26:47.741;0.4325;0.831;2.511
15:26:48.240;0.4332;0.842;2.511
15:26:48.741;0.4332;0.835;2.51
15:26:49.241;0.4329;0.841;2.51
15:26:49.740;0.4336;0.838;2.512
15:26:50.240;0.4327;0.833;2.511
15:26:50.741;0.4332;0.833;2.511
15:26:51.241;0.433;0.83;2.513
15:26:51.740;0.4332;0.839;2.512
15:26:52.240;0.4328;0.831;2.511
15:26:52.740;0.4332;0.951;2.511
15:26:53.241;0.4331;0.96;2.539
-----
15:26:53.741;0.4332;0.959;2.539
15:26:54.241;0.4333;0.946;2.537
15:26:54.741;0.4327;0.957;2.538
15:26:55.242;0.4331;0.951;2.538
15:26:55.741;0.4329;0.951;2.54
15:26:56.241;0.433;0.95;2.537
15:26:56.741;0.4329;0.956;2.537
15:26:57.241;0.4328;0.958;2.537
15:26:57.741;0.4329;0.947;2.535
15:26:58.241;0.4335;0.947;2.539
15:26:58.741;0.433;0.948;2.537
15:26:59.241;0.4334;0.95;2.537
15:26:59.741;0.4333;0.956;2.539
15:27:00.241;0.4329;0.96;2.538
15:27:00.741;0.4332;0.944;2.536
15:27:01.241;0.433;0.959;2.538
15:27:01.741;0.4332;0.972;2.536
15:27:02.240;0.4338;0.953;2.538
15:27:02.740;0.4329;0.931;2.533
15:27:03.240;0.4332;0.952;2.539
15:27:03.740;0.4326;0.949;2.538
15:27:04.241;0.4327;0.949;2.538
15:27:04.741;0.433;0.951;2.537
15:27:05.241;0.433;0.961;2.538
15:27:05.740;0.4334;0.955;2.538
15:27:06.241;0.4332;0.954;2.539
15:27:06.741;0.4329;0.954;2.538
15:27:07.240;0.4328;0.965;2.539
15:27:07.740;0.4332;0.958;2.537
15:27:08.241;0.4328;0.954;2.538
15:27:08.741;0.4328;0.96;2.538
15:27:09.240;0.4327;0.951;2.539
15:27:09.740;0.433;0.952;2.538
15:27:10.240;0.4332;0.948;2.538
15:27:10.740;0.433;0.953;2.538
15:27:11.240;0.4329;0.962;2.538
15:27:11.741;0.4332;0.941;2.536
15:27:12.241;0.4331;0.955;2.539
15:27:12.741;0.433;0.943;2.536
15:27:13.241;0.4327;0.96;2.539
15:27:13.741;0.4332;0.946;2.538
15:27:14.241;0.4332;0.952;2.539
15:27:14.741;0.4332;0.957;2.538
15:27:15.241;0.4327;0.938;2.535
15:27:15.741;0.4332;0.953;2.537
15:27:16.241;0.433;0.949;2.538
15:27:16.741;0.4331;0.956;2.539
15:27:17.241;0.4332;0.961;2.537
15:27:17.741;0.4332;0.956;2.538
15:27:18.241;0.4329;0.949;2.539
15:27:18.741;0.4331;0.957;2.539
15:27:19.241;0.4329;0.954;2.539
15:27:19.740;0.4329;0.953;2.538
15:27:20.240;0.4326;0.95;2.538
15:27:20.740;0.433;0.946;2.537
15:27:21.240;0.4326;0.956;2.537
15:27:21.740;0.4327;0.954;2.537
15:27:22.241;0.4329;0.947;2.539
15:27:22.741;0.4334;0.959;2.54
15:27:23.241;0.4334;0.953;2.538
15:27:23.740;0.4324;0.952;2.538
15:27:24.241;0.4328;0.951;2.54
15:27:24.741;0.4328;0.954;2.539
15:27:25.240;0.4331;0.949;2.539
15:27:25.740;0.4332;0.964;2.538
15:27:26.240;0.4333;0.954;2.537
15:27:26.740;0.4336;0.953;2.538
15:27:27.240;0.4335;0.955;2.539
15:27:27.740;0.4331;0.96;2.539
15:27:28.240;0.433;0.955;2.539
15:27:28.740;0.433;0.954;2.539
15:27:29.241;0.4331;0.944;2.535
15:27:29.741;0.4333;0.95;2.539
15:27:30.241;0.433;0.953;2.539
15:27:30.741;0.4332;0.957;2.54
15:27:31.241;0.4333;0.944;2.538
15:27:31.741;0.4332;0.95;2.538
15:27:32.241;0.4332;0.949;2.539
15:27:32.741;0.4337;0.956;2.538
15:27:33.241;0.4329;0.956;2.539
15:27:33.741;0.4337;0.95;2.537
15:27:34.241;0.4327;0.934;2.536
15:27:34.741;0.4332;0.963;2.539
15:27:35.241;0.4331;0.952;2.539
15:27:35.741;0.4332;0.956;2.538
15:27:36.241;0.4332;0.954;2.537
15:27:36.741;0.4331;0.949;2.538
15:27:37.241;0.433;0.953;2.54
15:27:37.740;0.4338;0.948;2.539
15:27:38.240;0.4333;0.958;2.539
15:27:38.741;0.4329;0.953;2.539
15:27:39.241;0.433;0.954;2.538
15:27:39.741;0.4335;0.95;2.538
15:27:40.240;0.4332;0.962;2.539
15:27:40.740;0.4327;0.956;2.538
15:27:41.240;0.433;0.961;2.539
15:27:41.740;0.4329;0.938;2.536
15:27:42.240;0.433;0.954;2.539
15:27:42.740;0.4331;0.955;2.537
15:27:43.240;0.4332;0.953;2.54
15:27:43.740;0.4333;0.955;2.537
15:27:44.240;0.4334;0.95;2.538
15:27:44.740;0.4334;0.948;2.535
15:27:45.240;0.4333;0.953;2.54
15:27:45.740;0.4335;0.957;2.54
15:27:46.240;0.4334;0.957;2.539
15:27:46.741;0.4332;0.945;2.538
15:27:47.241;0.4336;0.956;2.538
15:27:47.741;0.4339;0.949;2.539
15:27:48.241;0.4334;0.951;2.539
15:27:48.741;0.4336;0.944;2.539
15:27:49.241;0.4335;0.949;2.538
15:27:49.741;0.4337;0.947;2.538
15:27:50.241;0.4331;0.953;2.539
15:27:50.741;0.4333;0.95;2.538
15:27:51.241;0.4338;0.953;2.537
15:27:51.741;0.4335;0.938;2.537
15:27:52.241;0.4331;0.945;2.536
15:27:52.741;0.433;0.953;2.54
