timestamp;rms1;rms2;rms3
16:43:12.241;0.4415;0.839;2.516
16:43:12.742;0.4415;0.838;2.514
16:43:13.240;0.441;0.84;2.515
16:43:13.740;0.4415;0.836;2.514
16:43:14.240;0.4413;0.844;2.515
16:43:14.740;0.4415;0.837;2.511
16:43:15.241;0.4417;0.839;2.513
16:43:15.741;0.4413;0.842;2.515
16:43:16.241;0.4416;0.838;2.514
16:43:16.742;0.4416;0.841;2.513
16:43:17.241;0.4412;0.835;2.515
16:43:17.741;0.4415;0.834;2.514
16:43:18.241;0.4418;0.842;2.512
16:43:18.742;0.4413;0.832;2.515
16:43:19.241;0.4417;0.841;2.515
16:43:19.741;0.4419;0.8367;2.515
16:43:20.241;0.4411;0.839;2.515
16:43:20.741;0.4414;0.837;2.513
16:43:21.241;0.4414;0.837;2.515
16:43:21.741;0.4415;0.839;2.514
16:43:22.241;0.4409;0.838;2.514
-----
16:43:22.741;0.4413;1.378;2.515
16:43:23.242;0.4414;1.366;2.515
16:43:23.740;0.4416;0.953;2.543
16:43:24.240;0.4417;0.955;2.542
16:43:24.740;0.4409;0.939;2.54
16:43:25.241;0.4413;0.949;2.54
16:43:25.742;0.4415;0.95;2.541
16:43:26.241;0.4412;0.95;2.54
16:43:26.740;0.4416;0.956;2.541
16:43:27.240;0.441;0.951;2.544
16:43:27.740;0.4416;0.946;2.541
16:43:28.240;0.4408;0.953;2.54
16:43:28.740;0.4412;0.961;2.54
16:43:29.240;0.4414;0.951;2.539
16:43:29.740;0.4414;0.949;2.538
16:43:30.241;0.4414;0.941;2.541
16:43:30.741;0.4411;0.932;2.538
16:43:31.240;0.4407;0.942;2.542
16:43:31.741;0.4413;0.949;2.541
16:43:32.241;0.4415;0.95;2.54
16:43:32.741;0.4415;0.948;2.542
16:43:33.241;0.4413;0.946;2.54
16:43:33.742;0.4415;0.955;2.541
16:43:34.243;0.4415;0.95;2.542
16:43:34.741;0.4414;0.947;2.541
16:43:35.241;0.4413;0.949;2.542
16:43:35.741;0.4415;0.928;2.538
16:43:36.242;0.4416;0.952;2.541
16:43:36.741;0.4415;0.958;2.541
16:43:37.241;0.4417;0.947;2.541
16:43:37.741;0.4418;0.949;2.541
16:43:38.241;0.4416;0.947;2.541
16:43:38.741;0.4416;0.956;2.543
16:43:39.240;0.4413;0.951;2.541
16:43:39.740;0.4412;0.942;2.539
16:43:40.240;0.4413;0.95;2.541
16:43:40.740;0.4416;0.948;2.541
16:43:41.240;0.4415;0.934;2.539
16:43:41.740;0.4421;0.943;2.541
16:43:42.240;0.4413;0.95;2.54
16:43:42.740;0.441;0.957;2.541
16:43:43.241;0.441;0.98;2.541
16:43:43.741;0.4413;0.962;2.54
16:43:44.241;0.4413;0.951;2.542
16:43:44.741;0.4415;0.949;2.542
16:43:45.242;0.4414;0.946;2.543
16:43:45.740;0.4416;0.95;2.541
16:43:46.240;0.4418;0.953;2.541
16:43:46.740;0.4416;0.951;2.541
16:43:47.240;0.4415;0.956;2.541
16:43:47.741;0.4411;0.954;2.539
16:43:48.241;0.4418;0.954;2.541
16:43:48.740;0.4417;0.946;2.542
16:43:49.240;0.4409;0.949;2.54
16:43:49.741;0.4413;0.958;2.54
16:43:50.241;0.441;0.954;2.54
16:43:50.741;0.4419;0.959;2.541
16:43:51.241;0.4417;0.952;2.542
16:43:51.742;0.4416;0.95;2.541
16:43:52.242;0.4415;0.948;2.54
16:43:52.742;0.4417;0.956;2.543
16:43:53.241;0.4416;0.95;2.541
16:43:53.742;0.4414;0.936;2.538
16:43:54.241;0.4412;0.948;2.541
16:43:54.741;0.4418;0.954;2.542
16:43:55.241;0.4413;0.955;2.541
16:43:55.741;0.4421;0.953;2.541
16:43:56.240;0.4419;0.958;2.54
16:43:56.741;0.4414;0.953;2.54
16:43:57.241;0.4417;0.924;2.537
16:43:57.741;0.4413;0.956;2.541
16:43:58.241;0.4416;0.956;2.541
16:43:58.742;0.4412;0.954;2.541
16:43:59.240;0.4415;0.95;2.54
16:43:59.740;0.4417;0.949;2.537
16:44:00.240;0.4419;0.956;2.541
16:44:00.740;0.4417;0.957;2.543
16:44:01.240;0.4415;0.963;2.54
16:44:01.740;0.4411;0.978;2.541
16:44:02.240;0.4417;0.931;2.538
16:44:02.740;0.4413;0.957;2.541
16:44:03.240;0.4415;0.949;2.54
16:44:03.740;0.4415;0.959;2.543
16:44:04.240;0.4419;0.948;2.539
16:44:04.740;0.4417;0.956;2.539
16:44:05.241;0.4415;0.946;2.54
16:44:05.741;0.4422;0.953;2.54
16:44:06.240;0.4419;0.952;2.542
16:44:06.740;0.4418;0.953;2.542
16:44:07.240;0.4416;0.965;2.542
16:44:07.741;0.4419;0.954;2.541
16:44:08.241;0.4422;0.952;2.541
16:44:08.741;0.4418;0.95;2.539
16:44:09.241;0.4422;0.955;2.541
16:44:09.742;0.4411;0.953;2.539
16:44:10.241;0.442;0.928;2.538
16:44:10.741;0.442;0.954;2.539
16:44:11.241;0.4417;0.959;2.538
16:44:11.742;0.4418;0.949;2.539
16:44:12.241;0.4416;0.941;2.539
16:44:12.741;0.4423;0.951;2.539
16:44:13.241;0.4421;0.949;2.54
16:44:13.742;0.4419;0.954;2.542
16:44:14.242;0.4419;0.956;2.543
16:44:14.741;0.4419;0.954;2.541
16:44:15.241;0.4417;0.95;2.541
16:44:15.740;0.4424;0.964;2.542
16:44:16.240;0.4422;0.959;2.54
16:44:16.741;0.4421;0.951;2.541
16:44:17.241;0.4419;0.945;2.541
16:44:17.741;0.4422;0.953;2.543
16:44:18.240;0.4414;0.956;2.541
16:44:18.740;0.4422;0.948;2.54
16:44:19.240;0.4419;0.955;2.54
16:44:19.740;0.4419;0.958;2.541
16:44:20.240;0.442;0.953;2.54
16:44:20.740;0.4419;0.943;2.54
16:44:21.241;0.4418;0.945;2.54
16:44:21.741;0.4419;0.938;2.54
16:44:22.240;0.442;0.976;2.541
16:44:22.740;0.442;0.835;2.517
