timestamp;rms1;rms2;rms3
14:57:28.240;0.4374;0.83;2.511
14:57:28.741;0.4371;0.835;2.51
14:57:29.241;0.4377;0.831;2.512
14:57:29.741;0.4372;0.8285;2.512
14:57:30.241;0.4375;0.834;2.511
14:57:30.741;0.437;0.836;2.512
14:57:31.241;0.4371;0.831;2.513
14:57:31.741;0.4371;0.83;2.511
14:57:32.241;0.4374;0.8284;2.512
14:57:32.741;0.4372;0.835;2.511
14:57:33.241;0.4364;0.83;2.512
14:57:33.741;0.4369;0.831;2.511
14:57:34.241;0.4369;0.83;2.512
14:57:34.741;0.4367;0.83;2.51
14:57:35.241;0.4364;0.835;2.511
14:57:35.740;0.4361;0.836;2.512
14:57:36.240;0.4372;0.832;2.51
14:57:36.740;0.4373;0.8275;2.513
14:57:37.240;0.4369;0.838;2.511
14:57:37.741;0.4373;1.197;2.511
14:57:38.241;0.4367;0.947;2.54
-----
14:57:38.741;0.4373;0.951;2.539
14:57:39.240;0.4369;0.951;2.538
14:57:39.741;0.4372;0.934;2.536
14:57:40.241;0.4367;0.952;2.538
14:57:40.741;0.4372;0.945;2.537
14:57:41.240;0.4368;0.948;2.537
14:57:41.740;0.4371;0.949;2.538
14:57:42.241;0.4369;0.956;2.538
14:57:42.741;0.4369;0.924;2.535
14:57:43.240;0.4368;0.946;2.537
14:57:43.740;0.4371;0.951;2.538
14:57:44.240;0.437;0.928;2.538
14:57:44.740;0.4366;0.957;2.539
14:57:45.240;0.4374;0.946;2.538
14:57:45.740;0.4368;0.945;2.539
14:57:46.241;0.4369;0.949;2.538
14:57:46.741;0.4371;0.951;2.538
14:57:47.241;0.4373;0.941;2.537
14:57:47.741;0.4372;0.937;2.537
14:57:48.241;0.437;0.947;2.538
14:57:48.741;0.4375;0.947;2.537
14:57:49.241;0.4373;0.958;2.538
14:57:49.741;0.4371;0.95;2.538
14:57:50.241;0.4372;0.952;2.537
14:57:50.741;0.437;0.945;2.537
14:57:51.241;0.4365;0.947;2.537
14:57:51.741;0.4367;0.93;2.534
14:57:52.241;0.4374;0.947;2.537
14:57:52.741;0.4372;0.925;2.534
14:57:53.241;0.437;0.955;2.539
14:57:53.740;0.4372;0.945;2.539
14:57:54.240;0.4356;0.948;2.536
14:57:54.740;0.4367;0.957;2.538
14:57:55.240;0.4372;0.95;2.537
14:57:55.741;0.4375;0.957;2.537
14:57:56.241;0.437;0.945;2.538
14:57:56.741;0.4368;0.955;2.537
14:57:57.240;0.4374;0.945;2.538
14:57:57.740;0.4371;0.956;2.538
14:57:58.240;0.4372;0.964;2.538
14:57:58.740;0.4373;0.945;2.536
14:57:59.240;0.437;0.954;2.536
14:57:59.740;0.437;0.943;2.535
14:58:00.240;0.4368;0.973;2.538
14:58:00.740;0.4367;0.957;2.538
14:58:01.240;0.4374;0.955;2.537
14:58:01.740;0.4374;0.95;2.537
14:58:02.240;0.4371;0.945;2.536
14:58:02.740;0.4369;0.956;2.537
14:58:03.240;0.4369;0.949;2.538
14:58:03.741;0.4374;0.957;2.538
14:58:04.241;0.4373;0.958;2.535
14:58:04.741;0.4364;0.953;2.537
14:58:05.241;0.4361;0.955;2.537
14:58:05.741;0.436;0.95;2.538
14:58:06.241;0.4362;0.953;2.537
14:58:06.741;0.4359;0.952;2.538
14:58:07.241;0.4357;0.949;2.538
14:58:07.741;0.4353;0.956;2.538
14:58:08.241;0.4361;0.941;2.537
14:58:08.741;0.4356;0.954;2.537
14:58:09.241;0.4355;0.954;2.537
14:58:09.741;0.4354;0.944;2.539
14:58:10.241;0.4364;0.947;2.535
14:58:10.741;0.4374;0.945;2.537
14:58:11.241;0.4367;0.941;2.537
14:58:11.740;0.437;0.951;2.54
14:58:12.241;0.4362;0.942;2.538
14:58:12.741;0.436;0.959;2.538
14:58:13.241;0.4372;0.948;2.537
14:58:13.741;0.4368;0.945;2.536
14:58:14.240;0.4367;0.917;2.533
14:58:14.740;0.4375;0.949;2.537
14:58:15.240;0.4373;0.977;2.537
14:58:15.740;0.4367;0.952;2.539
14:58:16.240;0.4371;0.95;2.537
14:58:16.740;0.4368;0.958;2.537
14:58:17.240;0.4368;0.945;2.535
14:58:17.740;0.4363;0.935;2.535
14:58:18.240;0.4362;0.951;2.537
14:58:18.740;0.4373;0.945;2.536
14:58:19.240;0.4374;0.953;2.537
14:58:19.740;0.437;0.951;2.536
14:58:20.240;0.4371;0.961;2.536
14:58:20.740;0.4365;0.955;2.538
14:58:21.241;0.4376;0.923;2.533
14:58:21.741;0.437;0.952;2.537
14:58:22.241;0.4371;0.95;2.535
14:58:22.741;0.4366;0.949;2.537
14:58:23.241;0.4374;1.098;2.537
14:58:23.741;0.437;0.946;2.536
14:58:24.241;0.4371;0.949;2.535
14:58:24.741;0.4367;0.936;2.535
14:58:25.241;0.437;0.933;2.534
14:58:25.741;0.4369;0.948;2.538
14:58:26.241;0.4372;0.938;2.536
14:58:26.741;0.4371;0.93;2.536
14:58:27.241;0.437;0.943;2.536
14:58:27.741;0.4376;0.938;2.534
14:58:28.241;0.4369;0.88;2.527
14:58:28.741;0.4369;0.952;2.537
14:58:29.240;0.437;0.952;2.537
14:58:29.740;0.4378;0.95;2.537
14:58:30.240;0.4372;0.945;2.538
14:58:30.740;0.4375;0.947;2.537
14:58:31.240;0.4365;0.938;2.535
14:58:31.740;0.4369;0.939;2.536
14:58:32.240;0.4376;0.949;2.537
14:58:32.740;0.4373;0.952;2.535
14:58:33.240;0.4376;0.954;2.536
14:58:33.741;0.4369;0.94;2.536
14:58:34.241;0.4372;0.942;2.538
14:58:34.740;0.4374;0.948;2.538
14:58:35.240;0.4372;0.952;2.535
14:58:35.740;0.4374;0.943;2.537
14:58:36.240;0.4367;0.935;2.534
14:58:36.740;0.4373;0.974;2.535
14:58:37.240;0.4369;0.959;2.537
14:58:37.740;0.4368;0.944;2.538
