timestamp;rms1;rms2;rms3
16:59:01.241;0.4422;0.84;2.514
16:59:01.741;0.4423;0.838;2.514
16:59:02.241;0.4426;0.838;2.515
16:59:02.741;0.4419;0.842;2.515
16:59:03.242;0.4426;0.841;2.514
16:59:03.741;0.4423;0.8378;2.514
16:59:04.241;0.4426;0.838;2.513
16:59:04.741;0.4427;0.834;2.515
16:59:05.241;0.4422;0.833;2.514
16:59:05.741;0.4423;0.833;2.515
16:59:06.241;0.4422;0.83;2.513
16:59:06.741;0.4422;0.839;2.514
16:59:07.241;0.4426;0.842;2.514
16:59:07.740;0.4423;0.838;2.514
16:59:08.240;0.4425;0.8367;2.514
16:59:08.740;0.4426;0.834;2.514
16:59:09.240;0.4422;0.836;2.514
16:59:09.740;0.4423;0.845;2.515
16:59:10.240;0.4422;0.835;2.515
16:59:10.740;0.4426;0.836;2.515
16:59:11.240;0.4428;0.94;2.518
-----
16:59:11.740;0.4425;1.157;2.537
16:59:12.240;0.4428;1.165;2.537
16:59:12.740;0.443;1.158;2.538
16:59:13.240;0.4425;1.162;2.538
16:59:13.740;0.4428;1.158;2.538
16:59:14.240;0.4427;1.158;2.537
16:59:14.740;0.4432;1.167;2.537
16:59:15.240;0.4427;1.157;2.535
16:59:15.740;0.4436;1.16;2.537
16:59:16.240;0.443;1.159;2.537
16:59:16.741;0.4434;1.16;2.535
16:59:17.241;0.4436;1.16;2.538
16:59:17.741;0.4432;1.152;2.538
16:59:18.242;0.4434;1.157;2.538
16:59:18.742;0.4433;1.153;2.537
16:59:19.241;0.4432;1.158;2.537
16:59:19.741;0.4436;1.155;2.538
16:59:20.241;0.4435;1.16;2.538
16:59:20.741;0.4437;1.157;2.536
16:59:21.241;0.4433;1.155;2.539
16:59:21.741;0.4439;1.159;2.537
16:59:22.241;0.4431;1.157;2.537
16:59:22.740;0.4431;1.161;2.538
16:59:23.240;0.4428;1.16;2.537
16:59:23.740;0.4431;1.16;2.537
16:59:24.240;0.4434;1.156;2.537
16:59:24.740;0.4433;1.16;2.539
16:59:25.240;0.4435;1.158;2.538
16:59:25.740;0.4436;1.158;2.538
16:59:26.240;0.4429;1.158;2.537
16:59:26.740;0.4431;1.16;2.535
16:59:27.240;0.4426;1.17;2.537
16:59:27.740;0.4427;1.158;2.538
16:59:28.240;0.4425;1.16;2.536
16:59:28.740;0.4431;1.154;2.537
16:59:29.240;0.4431;1.156;2.537
16:59:29.740;0.4432;1.157;2.538
16:59:30.240;0.4429;1.157;2.538
16:59:30.740;0.4432;1.159;2.536
16:59:31.240;0.4435;1.158;2.538
16:59:31.740;0.4435;1.159;2.537
16:59:32.240;0.4432;1.158;2.537
16:59:32.740;0.4431;1.159;2.539
16:59:33.240;0.4433;1.159;2.537
16:59:33.740;0.4436;1.155;2.536
16:59:34.241;0.4436;1.157;2.539
16:59:34.741;0.4431;1.16;2.537
16:59:35.241;0.4437;1.158;2.538
16:59:35.741;0.4434;1.161;2.537
16:59:36.241;0.4432;1.163;2.536
16:59:36.741;0.4435;1.161;2.537
16:59:37.241;0.4437;1.161;2.538
16:59:37.741;0.4436;1.162;2.536
16:59:38.241;0.4438;1.156;2.537
16:59:38.741;0.4434;1.157;2.538
16:59:39.241;0.4434;1.159;2.537
16:59:39.741;0.4437;1.158;2.538
16:59:40.241;0.4436;1.16;2.539
16:59:40.741;0.4436;1.158;2.537
16:59:41.241;0.4437;1.16;2.537
16:59:41.741;0.444;1.156;2.536
16:59:42.241;0.4435;1.158;2.537
16:59:42.740;0.4442;1.166;2.538
16:59:43.240;0.4436;1.154;2.536
16:59:43.740;0.4441;1.16;2.537
16:59:44.240;0.4433;1.162;2.538
16:59:44.740;0.4435;1.162;2.535
16:59:45.240;0.4434;1.157;2.538
16:59:45.740;0.4433;1.168;2.534
16:59:46.240;0.444;1.163;2.536
16:59:46.740;0.4433;1.16;2.537
16:59:47.240;0.4434;1.158;2.538
16:59:47.740;0.4434;1.158;2.537
16:59:48.240;0.4433;1.158;2.537
16:59:48.740;0.4433;1.156;2.538
16:59:49.240;0.4433;1.16;2.538
16:59:49.740;0.4438;1.157;2.539
16:59:50.240;0.4432;1.163;2.537
16:59:50.740;0.4432;1.156;2.537
16:59:51.240;0.4433;1.155;2.535
16:59:51.741;0.4431;1.157;2.538
16:59:52.241;0.4437;1.16;2.538
16:59:52.741;0.443;1.156;2.535
16:59:53.241;0.4434;1.159;2.537
16:59:53.741;0.4432;1.155;2.535
16:59:54.242;0.4434;1.156;2.537
16:59:54.742;0.4435;1.16;2.538
16:59:55.241;0.443;1.161;2.539
16:59:55.742;0.4435;1.164;2.538
16:59:56.242;0.4432;1.165;2.537
16:59:56.741;0.443;1.161;2.537
16:59:57.241;0.4428;1.159;2.538
16:59:57.740;0.4434;1.162;2.539
16:59:58.240;0.4428;1.163;2.536
16:59:58.740;0.4431;1.163;2.537
16:59:59.240;0.4431;1.152;2.538
16:59:59.740;0.4428;1.161;2.537
17:00:00.240;0.4431;1.156;2.535
17:00:00.741;0.4428;1.11;2.532
