timestamp;rms1;rms2;rms3
14:38:37.241;0.4383;0.832;2.511
14:38:37.741;0.4381;0.834;2.511
14:38:38.241;0.4387;0.8379;2.51
14:38:38.741;0.4388;0.831;2.51
14:38:39.241;0.4379;0.835;2.51
14:38:39.741;0.4382;0.85;2.51
14:38:40.240;0.4387;0.838;2.512
14:38:40.741;0.4378;0.83;2.511
14:38:41.242;0.4386;0.8295;2.512
14:38:41.741;0.4386;0.837;2.51
14:38:42.241;0.4384;0.83;2.511
14:38:42.740;0.4389;0.831;2.509
14:38:43.241;0.4384;0.834;2.51
14:38:43.741;0.4386;0.831;2.51
14:38:44.240;0.4387;0.832;2.511
14:38:44.741;0.4383;0.831;2.51
14:38:45.241;0.439;0.8279;2.51
14:38:45.741;0.4387;0.831;2.511
14:38:46.241;0.4385;0.833;2.511
14:38:46.740;0.4375;1.345;2.509
14:38:47.241;0.4383;1.16;2.532
-----
14:38:47.742;0.4382;1.151;2.531
14:38:48.240;0.4378;1.161;2.534
14:38:48.740;0.4382;1.152;2.534
14:38:49.240;0.4383;1.152;2.534
14:38:49.741;0.4379;1.154;2.533
14:38:50.241;0.4384;1.153;2.534
14:38:50.741;0.4384;1.151;2.533
14:38:51.241;0.4381;1.16;2.534
14:38:51.741;0.4387;1.159;2.532
14:38:52.241;0.4383;1.158;2.534
14:38:52.741;0.4382;1.148;2.533
14:38:53.242;0.4383;1.154;2.534
14:38:53.741;0.4376;1.149;2.532
14:38:54.242;0.4378;1.157;2.532
14:38:54.741;0.4385;1.157;2.533
14:38:55.241;0.4387;1.154;2.532
14:38:55.742;0.438;1.152;2.533
14:38:56.241;0.4382;1.153;2.531
14:38:56.742;0.4382;1.146;2.534
14:38:57.240;0.438;1.149;2.532
14:38:57.740;0.4382;1.165;2.533
14:38:58.241;0.4386;1.154;2.531
14:38:58.742;0.4384;1.159;2.533
14:38:59.241;0.4384;1.155;2.532
14:38:59.742;0.4386;1.154;2.533
14:39:00.240;0.4385;1.158;2.534
14:39:00.740;0.4385;1.157;2.532
14:39:01.240;0.4384;1.158;2.533
14:39:01.740;0.4386;1.156;2.532
14:39:02.240;0.4389;1.154;2.534
14:39:02.741;0.4382;1.162;2.534
14:39:03.241;0.4386;1.152;2.534
14:39:03.741;0.4387;1.156;2.533
14:39:04.241;0.4387;1.154;2.532
14:39:04.741;0.4386;1.156;2.534
14:39:05.240;0.4384;1.153;2.531
14:39:05.740;0.4387;1.152;2.533
14:39:06.240;0.4387;1.157;2.532
14:39:06.740;0.4386;1.156;2.537
14:39:07.241;0.4387;1.162;2.532
14:39:07.742;0.4386;1.153;2.534
14:39:08.241;0.4383;1.157;2.533
14:39:08.741;0.4384;1.154;2.534
14:39:09.241;0.4387;1.158;2.533
14:39:09.741;0.4391;1.155;2.534
14:39:10.242;0.4387;1.149;2.535
14:39:10.742;0.4382;1.152;2.533
14:39:11.241;0.4386;1.152;2.534
14:39:11.741;0.4379;1.154;2.533
14:39:12.242;0.4386;1.156;2.535
14:39:12.741;0.4389;1.151;2.533
14:39:13.241;0.4383;1.155;2.533
14:39:13.742;0.4382;1.158;2.532
14:39:14.241;0.438;1.152;2.534
14:39:14.741;0.4386;1.153;2.533
14:39:15.241;0.4385;1.151;2.533
14:39:15.741;0.4389;1.158;2.533
14:39:16.241;0.4385;1.152;2.535
14:39:16.741;0.4381;1.15;2.532
14:39:17.241;0.4389;1.164;2.533
14:39:17.740;0.4384;1.152;2.534
14:39:18.241;0.4381;1.151;2.533
14:39:18.742;0.4386;1.154;2.534
14:39:19.240;0.4384;1.151;2.533
14:39:19.740;0.4385;1.152;2.535
14:39:20.240;0.4391;1.156;2.532
14:39:20.741;0.4385;1.156;2.532
14:39:21.241;0.4388;1.147;2.533
14:39:21.740;0.439;1.16;2.534
14:39:22.240;0.4383;1.153;2.532
14:39:22.740;0.4384;1.151;2.533
14:39:23.241;0.4386;1.156;2.532
14:39:23.741;0.4391;1.153;2.531
14:39:24.241;0.4383;1.152;2.534
14:39:24.741;0.4387;1.154;2.533
14:39:25.241;0.4384;1.156;2.533
14:39:25.742;0.4387;1.156;2.532
14:39:26.241;0.4387;1.194;2.533
14:39:26.741;0.4388;1.155;2.533
14:39:27.241;0.4393;1.151;2.533
14:39:27.742;0.4394;1.153;2.533
14:39:28.241;0.4384;1.154;2.532
14:39:28.741;0.439;1.156;2.532
14:39:29.242;0.4388;1.151;2.533
14:39:29.741;0.4387;1.149;2.534
14:39:30.241;0.4388;1.154;2.534
14:39:30.741;0.4391;1.163;2.534
14:39:31.241;0.4385;1.158;2.535
14:39:31.742;0.4389;1.155;2.533
14:39:32.241;0.4389;1.154;2.533
14:39:32.742;0.4379;1.155;2.534
14:39:33.240;0.438;1.153;2.533
14:39:33.740;0.4387;1.152;2.532
14:39:34.241;0.4388;1.151;2.533
14:39:34.741;0.4386;1.155;2.533
14:39:35.241;0.4389;1.148;2.531
14:39:35.741;0.4382;1.157;2.534
14:39:36.242;0.4387;1.152;2.535
14:39:36.741;0.4385;1.151;2.533
