timestamp;rms1;rms2;rms3
14:43:48.241;0.4378;0.834;2.511
14:43:48.741;0.4381;0.832;2.512
14:43:49.241;0.4388;0.836;2.509
14:43:49.741;0.4386;0.845;2.51
14:43:50.241;0.4389;0.834;2.511
14:43:50.741;0.4381;0.835;2.51
14:43:51.241;0.4388;0.833;2.51
14:43:51.741;0.4386;0.835;2.511
14:43:52.241;0.4389;0.83;2.51
14:43:52.741;0.4385;0.83;2.511
14:43:53.241;0.439;0.83;2.511
14:43:53.742;0.4386;0.83;2.51
14:43:54.241;0.4384;0.833;2.511
14:43:54.741;0.4386;0.832;2.51
14:43:55.240;0.439;0.832;2.511
14:43:55.741;0.4383;0.833;2.51
14:43:56.241;0.439;0.8279;2.511
14:43:56.741;0.4386;0.83;2.512
14:43:57.241;0.4389;0.828;2.51
14:43:57.741;0.4385;0.836;2.51
14:43:58.242;0.4383;1.303;2.508
-----
14:43:58.741;0.4381;1.158;2.534
14:43:59.241;0.4383;1.147;2.533
14:43:59.740;0.4389;1.156;2.534
14:44:00.240;0.4385;1.156;2.534
14:44:00.740;0.4386;1.16;2.533
14:44:01.240;0.4389;1.156;2.533
14:44:01.740;0.439;1.169;2.533
14:44:02.241;0.4387;1.157;2.534
14:44:02.741;0.439;1.156;2.534
14:44:03.240;0.4386;1.155;2.534
14:44:03.740;0.4391;1.16;2.535
14:44:04.242;0.4389;1.159;2.531
14:44:04.742;0.4388;1.156;2.533
14:44:05.242;0.4392;1.155;2.533
14:44:05.741;0.4383;1.156;2.532
14:44:06.241;0.4386;1.151;2.534
14:44:06.742;0.4387;1.156;2.532
14:44:07.241;0.4383;1.155;2.532
14:44:07.741;0.438;1.149;2.532
14:44:08.241;0.438;1.158;2.534
14:44:08.741;0.4384;1.156;2.533
14:44:09.241;0.4388;1.161;2.535
14:44:09.741;0.4384;1.149;2.533
14:44:10.241;0.439;1.157;2.535
14:44:10.741;0.4388;1.156;2.534
14:44:11.240;0.4383;1.151;2.535
14:44:11.740;0.4384;1.153;2.534
14:44:12.240;0.4386;1.155;2.533
14:44:12.740;0.4385;1.152;2.534
14:44:13.241;0.4388;1.153;2.534
14:44:13.742;0.4387;1.151;2.534
14:44:14.241;0.4386;1.164;2.533
14:44:14.741;0.4381;1.155;2.534
14:44:15.240;0.4387;1.153;2.535
14:44:15.741;0.4386;1.155;2.534
14:44:16.241;0.4385;1.155;2.535
14:44:16.740;0.4386;1.156;2.532
14:44:17.240;0.438;1.16;2.533
14:44:17.740;0.4391;1.156;2.534
14:44:18.240;0.4386;1.158;2.535
14:44:18.740;0.4386;1.154;2.532
14:44:19.240;0.4387;1.161;2.533
14:44:19.741;0.4388;1.151;2.535
14:44:20.241;0.4388;1.161;2.533
14:44:20.740;0.4387;1.151;2.535
14:44:21.240;0.4386;1.157;2.533
14:44:21.741;0.4393;1.154;2.533
14:44:22.241;0.4387;1.156;2.536
14:44:22.741;0.4383;1.151;2.535
14:44:23.241;0.4381;1.156;2.533
14:44:23.741;0.4387;1.153;2.533
14:44:24.242;0.438;1.156;2.534
14:44:24.742;0.4388;1.155;2.534
14:44:25.241;0.4392;1.155;2.535
14:44:25.741;0.4382;1.153;2.534
14:44:26.242;0.4382;1.157;2.534
14:44:26.741;0.4388;1.156;2.536
14:44:27.241;0.4395;1.156;2.532
14:44:27.741;0.439;1.157;2.535
14:44:28.241;0.4387;1.154;2.535
14:44:28.742;0.4386;1.157;2.533
14:44:29.242;0.4385;1.157;2.535
14:44:29.740;0.4386;1.158;2.534
14:44:30.240;0.4384;1.155;2.535
14:44:30.740;0.4383;1.159;2.534
14:44:31.240;0.4387;1.155;2.534
14:44:31.740;0.4389;1.159;2.533
14:44:32.240;0.4383;1.157;2.536
14:44:32.740;0.4386;1.152;2.533
14:44:33.241;0.4382;1.153;2.535
14:44:33.741;0.438;1.153;2.534
14:44:34.241;0.4384;1.155;2.534
14:44:34.740;0.4386;1.159;2.535
14:44:35.241;0.4386;1.157;2.536
14:44:35.741;0.4387;1.159;2.533
14:44:36.240;0.4386;1.164;2.533
14:44:36.740;0.4386;1.16;2.534
14:44:37.241;0.438;1.153;2.535
14:44:37.741;0.4385;1.155;2.535
14:44:38.241;0.439;1.154;2.533
14:44:38.740;0.4384;1.156;2.535
14:44:39.241;0.4388;1.151;2.533
14:44:39.742;0.4383;1.159;2.534
14:44:40.241;0.4385;1.157;2.534
14:44:40.741;0.4391;1.158;2.533
14:44:41.242;0.4386;1.152;2.534
14:44:41.742;0.439;1.157;2.534
14:44:42.242;0.4386;1.151;2.534
14:44:42.741;0.4383;1.154;2.534
14:44:43.241;0.4385;1.16;2.534
14:44:43.741;0.4384;1.158;2.535
14:44:44.241;0.4382;1.157;2.535
14:44:44.741;0.4384;1.155;2.533
14:44:45.241;0.4386;1.154;2.533
14:44:45.741;0.4385;1.155;2.535
14:44:46.241;0.4392;1.156;2.533
14:44:46.742;0.4386;1.149;2.536
14:44:47.241;0.4388;1.152;2.534
14:44:47.741;0.4385;1.155;2.535
14:44:48.240;0.4384;1.16;2.533
14:44:48.741;0.4379;0.834;2.512
