        1490922776.819404,
        1490922779.069184,
        1490923346.542087,
        1490923347.791733,
        1490923349.92926,
        1490923351.404657,
        1490923352.936262,
        1490923354.234477,
        1490923356.475252,
        1490923357.871934,
        1490923359.096146,
        1490923360.566721,
        1490923362.647937,
        1490923363.82351,
        1490923365.063921,
        1490923366.375163,
        1490923368.545771,
        1490923370.02427,
        1490923371.378716,
        1490923373.045994,
        1490923375.110803,
        1490923376.330521,
        1490923377.567962,
        1490923379.012161,
        1490923380.922304,
        1490923382.254689,
        1490923383.254801,
        1490923385.004949,
        1490923387.317529,
        1490923388.593261,
        1490923390.13657,
        1490923391.534684,
        1490923393.802545,
        1490923395.398774,
        1490923396.836821,
        1490923399.203718,
        1490923400.493542,
        1490923401.864561,
        1490923403.327706,
        1490923405.598222,
        1490923406.764884,
        1490923408.200912,
        1490923410.706169,
        1490923412.217447,
        1490923413.613737,
        1490923415.232096,
        1490923417.225244,
        1490923418.699627,
        1490923420.10139,
        1490923422.547608,
        1490923423.909457,
        1490923425.248694,
        1490923426.622968,
        1490923428.592608,
        1490923429.786175,
        1490923431.051295,
        1490923432.464103,
        1490923434.603466,
        1490923435.84614,
        1490923437.007652,
        1490923438.509847,
        1490923440.617354,
        1490923441.798251,
        1490923443.318904,
        1490923445.033167,
        1490923447.290713,
        1490923448.45649,
        1490923450.050835,
        1490923451.24728,
        1490923453.205751,
        1490923454.655414,
        1490923455.943,
        1490923457.760579,
        1490923459.760723,
        1490923461.210689,
        1490923462.742923,
        1490923464.483105,
        1490923465.79875,
        1490923467.017856,
        1490923468.676596,
        1490923470.861575,
        1490923472.331353,
        1490923473.815449,
        1490923475.327477,
        1490923477.58604,
        1490923478.691687,
        1490923480.106176,
        1490923481.599173,
        1490923483.848045,
        1490923485.539478,
        1490923486.675901,
        1490923488.944852,
        1490923490.175437,
        1490923491.611204,
        1490923492.76414,
        1490923494.887409,
        1490923496.045749,
        1490923497.861638,
        1490923499.128568,
        1490923501.42208,
        1490923502.890193,
        1490923504.559154,
        1490924067.587089,
        1490924069.480448,
        1490924071.088543,
        1490924073.28274,
        1490924075.07443,
        1490924076.403152,
        1490924077.835448,
        1490924079.828594,
        1490924081.150347,
        1490924082.536747,
        1490924084.048145,
        1490924086.156053,
        1490924088.126242,
        1490924089.579648,
        1490924091.867097,
        1490924093.435808,
        1490924095.138349,
        1490924097.508063,
        1490924098.896848,
        1490924100.313377,
        1490924101.739204,
        1490924103.968959,
        1490924105.993967,
        1490924109.13423,
        1490924111.099694,
        1490924112.940625,
        1490924114.18797,
        1490924116.344366,
        1490924118.262585,
        1490924119.630658,
        1490924121.881981,
        1490924123.326262,
        1490924124.918421,
        1490924126.84569,
        1490924128.402591,
        1490924130.061156,
        1490924131.367769,
        1490924133.558113,
        1490924135.142261,
        1490924136.419972,
        1490924137.437321,
        1490924139.41504,
        1490924141.018722,
        1490924142.646764,
        1490924144.184897,
        1490924145.909282,
        1490924147.361126,
        1490924148.646735,
        1490924149.924365,
        1490924151.967092,
        1490924153.236133,
        1490924155.020757,
        1490924157.303624,
        1490924158.44826,
        1490924160.15906,
        1490924161.485064,
        1490924163.486346,
        1490924164.722222,
        1490924166.061085,
        1490924167.674262,
        1490924169.766522,
        1490924171.104337,
        1490924172.778219,
        1490924174.132372,
        1490924176.151858,
        1490924177.836384,
        1490924179.084095,
        1490924180.781132,
        1490924182.719964,
        1490924183.887531,
        1490924185.010179,
        1490924186.368279,
        1490924188.595917,
        1490924189.793954,
        1490924191.414211,
        1490924193.775209,
        1490924195.084249,
        1490924196.599772,
        1490924197.993701,
        1490924200.169407,
        1490924201.901558,
        1490924203.427833,
        1490924205.566577,
        1490924206.90289,
        1490924208.432625,
        1490924209.896043,
        1490924211.820001,
        1490924213.36322,
        1490924214.665223,
        1490924216.047831,
        1490924217.937802,
        1490924219.624639,
        1490924220.892624,
        1490924222.076674,
        1490924224.555848,
        1490924226.088149,
        1490924227.419366,
        1490924229.473569,
        1490924231.003856,
        1490924232.728534,
        1490924816.852802,
        1490924818.197137,
        1490924820.271659,
        1490924821.534916,
        1490924823.126969,
        1490924824.44811,
        1490924826.582492,
        1490924827.756707,
        1490924829.170487,
        1490924830.979048,
        1490924832.668282,
        1490924834.046303,
        1490924835.522575,
        1490924837.022419,
        1490924838.91159,
        1490924840.242147,
        1490924841.397318,
        1490924842.89861,
        1490924845.129409,
        1490924846.600299,
        1490924847.803057,
        1490924850.141453,
        1490924851.810413,
        1490924853.168213,
        1490924854.46272,
        1490924856.596772,
        1490924857.907746,
        1490924859.181155,
        1490924860.672004,
        1490924862.775439,
        1490924864.319874,
        1490924865.461557,
        1490924867.300847,
        1490924869.207522,
        1490924870.549234,
        1490924871.902569,
        1490924873.891731,
        1490924875.19997,
        1490924876.623172,
        1490924877.869904,
        1490924879.975404,
        1490924881.412736,
        1490924882.66407,
        1490924883.815012,
        1490924885.548056,
        1490924887.192307,
        1490924888.590925,
        1490924889.982769,
        1490924892.170087,
        1490924893.583037,
        1490924894.972251,
        1490924896.475221,
        1490924898.455032,
        1490924899.544513,
        1490924901.19477,
        1490924902.550892,
        1490924904.82941,
        1490924906.274951,
        1490924907.362119,
        1490924909.016618,
        1490924911.039074,
        1490924912.374831,
        1490924913.762355,
        1490924915.612056,
        1490924917.49126,
        1490924919.243531,
        1490924921.036406,
        1490924923.307116,
        1490924924.655135,
        1490924925.703685,
        1490924927.948103,
        1490924930.381299,
        1490924931.704733,
        1490924933.395559,
        1490924935.06474,
        1490924936.51351,
        1490924937.813026,
        1490924938.952087,
        1490924940.944497,
        1490924942.358872,
        1490924943.72553,
        1490924944.826513,
        1490924946.993974,
        1490924948.397094,
        1490924949.600346,
        1490924951.761602,
        1490924953.00973,
        1490924954.366922,
        1490924955.588796,
        1490924957.374665,
        1490924959.205423,
        1490924960.73403,
        1490924962.06888,
        1490924964.565798,
        1490924965.913607,
        1490924967.416894,
        1490924969.366711,
        1490924971.329553,
        1490924972.981018,
        1490924974.533587,
        1490925556.098528,
        1490925557.701798,
        1490925559.428946,
        1490925561.478964,
        1490925563.070001,
        1490925564.657303,
        1490925566.27103,
        1490925567.931841,
        1490925569.424266,
        1490925570.926781,
        1490925573.205028,
        1490925574.512913,
        1490925576.013463,
        1490925577.625234,
        1490925579.65398,
        1490925581.183555,
        1490925582.768553,
        1490925584.964473,
        1490925586.057443,
        1490925587.079496,
        1490925588.47418,
        1490925590.032408,
        1490925591.477339,
        1490925592.859326,
        1490925594.07575,
        1490925595.342179,
        1490925597.478334,
        1490925598.732096,
        1490925600.166956,
        1490925601.772466,
        1490925604.418725,
        1490925606.439036,
        1490925608.912899,
        1490925610.655976,
        1490925612.429488,
        1490925615.047194,
        1490925616.582673,
        1490925618.248051,
        1490925619.444298,
        1490925621.464406,
        1490925623.204291,
        1490925624.597594,
        1490925626.758238,
        1490925628.259543,
        1490925629.678667,
        1490925631.234819,
        1490925633.577832,
        1490925635.145702,
        1490925636.766977,
        1490925638.126641,
        1490925640.234249,
        1490925641.357046,
        1490925642.569957,
        1490925644.042315,
        1490925646.088093,
        1490925647.131884,
        1490925648.597514,
        1490925650.106407,
        1490925652.387089,
        1490925653.8897,
        1490925655.368662,
        1490925657.442564,
        1490925658.49776,
        1490925659.841554,
        1490925661.162544,
        1490925663.195883,
        1490925664.345966,
        1490925666.015325,
        1490925667.390779,
        1490925669.480287,
        1490925670.616956,
        1490925671.845808,
        1490925673.40783,
        1490925675.255881,
        1490925676.675493,
        1490925677.882031,
        1490925679.019004,
        1490925681.144684,
        1490925682.147507,
        1490925683.166763,
        1490925684.413158,
        1490925685.531647,
        1490925687.460189,
        1490925688.834191,
        1490925690.137539,
        1490925691.428362,
        1490925693.730359,
        1490925694.969542,
        1490925696.204569,
        1490925697.956676,
        1490925699.990099,
        1490925701.248541,
        1490925702.682156,
        1490925704.292286,
        1490925706.653287,
        1490925707.952241,
        1490925709.325335,
        1490925711.489819,
        1490925712.754789,
        1490925714.199339,
        1490926287.106359,
        1490926289.059727,
        1490926290.521847,
        1490926292.2114,
        1490926293.636186,
        1490926295.565876,
        1490926297.11373,
        1490926298.470954,
        1490926299.77246,
        1490926301.806341,
        1490926303.000371,
        1490926304.236525,
        1490926305.751154,
        1490926307.994871,
        1490926309.345296,
        1490926310.90268,
        1490926312.102282,
        1490926314.103173,
        1490926315.579563,
        1490926316.914529,
        1490926318.358308,
        1490926320.426546,
        1490926321.84218,
        1490926323.247235,
        1490926324.954288,
        1490926326.584931,
        1490926328.068925,
        1490926329.413321,
        1490926331.496446,
        1490926333.047323,
        1490926334.410139,
        1490926335.666802,
        1490926337.803765,
        1490926339.608262,
        1490926341.016815,
        1490926343.103136,
        1490926344.516987,
        1490926345.83645,
        1490926347.437502,
        1490926349.472198,
        1490926351.165511,
        1490926352.747086,
        1490926354.49234,
        1490926356.394525,
        1490926358.170473,
        1490926359.534095,
        1490926361.017367,
        1490926363.107909,
        1490926364.666588,
        1490926366.11663,
        1490926368.128475,
        1490926369.43324,
        1490926370.757779,
        1490926372.120331,
        1490926374.500409,
        1490926376.017676,
        1490926377.43753,
        1490926379.432299,
        1490926381.151651,
        1490926382.641293,
        1490926383.910481,
        1490926385.926488,
        1490926387.596685,
        1490926388.94553,
        1490926390.416627,
        1490926392.553318,
        1490926394.014076,
        1490926395.652231,
        1490926397.631647,
        1490926399.031711,
        1490926400.549816,
        1490926401.958243,
        1490926404.269604,
        1490926405.435899,
        1490926406.888049,
        1490926408.337646,
        1490926410.575918,
        1490926412.110147,
        1490926413.293192,
        1490926414.935975,
        1490926416.796206,
        1490926418.276724,
        1490926419.449848,
        1490926420.823717,
        1490926423.338604,
        1490926424.777576,
        1490926426.184214,
        1490926428.487327,
        1490926430.059205,
        1490926431.583122,
        1490926432.917408,
        1490926435.000671,
        1490926436.753169,
        1490926438.194695,
        1490926440.243603,
        1490926441.76058,
        1490926443.393719,
        1490926444.65446,
        1490926447.107933,
        1490926448.485049,
        1490927032.148438,
        1490927033.693403,
        1490927035.392516,
        1490927037.373053,
        1490927038.599829,
        1490927040.220746,
        1490927042.234476,
        1490927043.676417,
        1490927045.226165,
        1490927046.837209,
        1490927048.788108,
        1490927050.487809,
        1490927051.923304,
        1490927054.315256,
        1490927055.720284,
        1490927057.122259,
        1490927058.525892,
        1490927060.585193,
        1490927062.091475,
        1490927063.343324,
        1490927065.136031,
        1490927067.529152,
        1490927069.037691,
        1490927070.48154,
        1490927072.447313,
        1490927074.09734,
        1490927075.504334,
        1490927076.886428,
        1490927079.096169,
        1490927080.58005,
        1490927082.261592,
        1490927083.7855,
        1490927085.730475,
        1490927087.141404,
        1490927088.480121,
        1490927090.524863,
        1490927091.706485,
        1490927093.021611,
        1490927094.528324,
        1490927096.804306,
        1490927098.10335,
        1490927099.550615,
        1490927101.091328,
        1490927103.408751,
        1490927105.173377,
        1490927107.161189,
        1490927109.834001,
        1490927111.535591,
        1490927112.964332,
        1490927115.117229,
        1490927116.731724,
        1490927118.177175,
        1490927120.069475,
        1490927121.631035,
        1490927123.227254,
        1490927124.944516,
        1490927126.807035,
        1490927128.219744,
        1490927130.328635,
        1490927133.037585,
        1490927134.12323,
        1490927135.78573,
        1490927138.011735,
        1490927139.580217,
        1490927140.890436,
        1490927142.319048,
        1490927143.430615,
        1490927145.35814,
        1490927146.591971,
        1490927147.830297,
        1490927149.016686,
        1490927151.054584,
        1490927152.380481,
        1490927153.562728,
        1490927155.308447,
        1490927157.37781,
        1490927158.713463,
        1490927160.379277,
        1490927161.867681,
        1490927163.775193,
        1490927165.243141,
        1490927166.809474,
        1490927169.051062,
        1490927170.581246,
        1490927172.015852,
        1490927173.432155,
        1490927175.364865,
        1490927176.950849,
        1490927178.23769,
        1490927179.673198,
        1490927181.944888,
        1490927183.225693,
        1490927184.860444,
        1490927187.032056,
        1490927188.454726,
        1490927189.76691,
        1490927191.333412,
        1490927193.564964,
        1490927195.093008,
        1490927196.636746,
        1490927771.616373,
        1490927772.864782,
        1490927774.190202,
        1490927775.519884,
        1490927777.661022,
        1490927779.031283,
        1490927780.245065,
        1490927781.443068,
        1490927783.255014,
        1490927784.703605,
        1490927786.11425,
        1490927787.739405,
        1490927789.917671,
        1490927791.434295,
        1490927792.834741,
        1490927795.158292,
        1490927796.578335,
        1490927797.952451,
        1490927799.488001,
        1490927801.694569,
        1490927803.379119,
        1490927804.812031,
        1490927806.57448,
        1490927808.483583,
        1490927809.692586,
        1490927811.276942,
        1490927812.771507,
        1490927814.443389,
        1490927815.887141,
        1490927817.691031,
        1490927819.661763,
        1490927821.484843,
        1490927822.880295,
        1490927824.574315,
        1490927826.848062,
        1490927828.302162,
        1490927829.950236,
        1490927832.139958,
        1490927833.432614,
        1490927834.709813,
        1490927836.083417,
        1490927838.122418,
        1490927839.393801,
        1490927840.894838,
        1490927842.562568,
        1490927844.512424,
        1490927845.597865,
        1490927847.483208,
        1490927849.265615,
        1490927851.014976,
        1490927852.179048,
        1490927853.580184,
        1490927855.943992,
        1490927857.442216,
        1490927858.884178,
        1490927860.333014,
        1490927862.290079,
        1490927863.723768,
        1490927864.903068,
        1490927866.243511,
        1490927868.407112,
        1490927869.960317,
        1490927871.418301,
        1490927872.873869,
        1490927874.57185,
        1490927876.118284,
        1490927877.574004,
        1490927879.565551,
        1490927881.097539,
        1490927882.352485,
        1490927883.85742,
        1490927886.085322,
        1490927887.821735,
        1490927889.281822,
        1490927891.654342,
        1490927892.936674,
        1490927894.126492,
        1490927895.36387,
        1490927897.056875,
        1490927899.002291,
        1490927900.080058,
        1490927901.215632,
        1490927902.650371,
        1490927904.794887,
        1490927906.946811,
        1490927908.550724,
        1490927910.506877,
        1490927911.962738,
        1490927913.730632,
        1490927915.857615,
        1490927917.363852,
        1490927918.774633,
        1490927920.330117,
        1490927922.383556,
        1490927923.591363,
        1490927924.810441,
        1490927926.290595,
        1490927928.601416,
        1490927930.503126,
        1490927931.720764,
        1490928525.805237,
        1490928527.45058,
        1490928529.081718,
        1490928531.00012,
        1490928532.59474,
        1490928534.043967,
        1490928535.77866,
        1490928537.835532,
        1490928539.086923,
        1490928540.270463,
        1490928541.391794,
        1490928543.680457,
        1490928545.007329,
        1490928546.39557,
        1490928548.64866,
        1490928550.09338,
        1490928551.759513,
        1490928553.163682,
        1490928555.43528,
        1490928556.956498,
        1490928558.262206,
        1490928559.751785,
        1490928561.648422,
        1490928563.129423,
        1490928564.56375,
        1490928565.669986,
        1490928567.846786,
        1490928569.154374,
        1490928570.838659,
        1490928572.814579,
        1490928574.162732,
        1490928575.657742,
        1490928576.998413,
        1490928579.232331,
        1490928580.690169,
        1490928582.210923,
        1490928584.413224,
        1490928585.932529,
        1490928587.385901,
        1490928588.671255,
        1490928590.829506,
        1490928592.424282,
        1490928593.768413,
        1490928595.070137,
        1490928597.262004,
        1490928598.507524,
        1490928599.939557,
        1490928601.235722,
        1490928603.522686,
        1490928605.529271,
        1490928607.528001,
        1490928609.951385,
        1490928611.618281,
        1490928612.899635,
        1490928614.225449,
        1490928615.975991,
        1490928617.506712,
        1490928618.798518,
        1490928620.448446,
        1490928622.219506,
        1490928623.475101,
        1490928624.843721,
        1490928626.975128,
        1490928628.341358,
        1490928629.627875,
        1490928630.950851,
        1490928633.519675,
        1490928634.791613,
        1490928636.258677,
        1490928637.565999,
        1490928639.590833,
        1490928640.858179,
        1490928642.254987,
        1490928643.666139,
        1490928645.716374,
        1490928646.870514,
        1490928648.315705,
        1490928649.569942,
        1490928651.715099,
        1490928653.200342,
        1490928654.50987,
        1490928656.139727,
        1490928657.952924,
        1490928659.337397,
        1490928660.705091,
        1490928662.504794,
        1490928664.243534,
        1490928665.36659,
        1490928666.798449,
        1490928668.741808,
        1490928670.197694,
        1490928671.65854,
        1490928673.04648,
        1490928674.490303,
        1490928676.580182,
        1490928677.784599,
        1490928679.020815,
        1490928681.120274,
        1490928682.454469,
        1490928683.826831,
        1490929280.633719,
        1490929282.153405,
        1490929284.335806,
        1490929285.841078,
        1490929287.186937,
        1490929288.365857,
        1490929290.492506,
        1490929292.03136,
        1490929293.357185,
        1490929295.361469,
        1490929297.02263,
        1490929298.495917,
        1490929299.794515,
        1490929301.899098,
        1490929303.085981,
        1490929304.505272,
        1490929305.641347,
        1490929307.23478,
        1490929308.897189,
        1490929310.171718,
        1490929311.450655,
        1490929312.861413,
        1490929314.952657,
        1490929316.23872,
        1490929317.686079,
        1490929319.65079,
        1490929321.216,
        1490929322.620473,
        1490929324.219,
        1490929326.365511,
        1490929327.907615,
        1490929329.616902,
        1490929331.756295,
        1490929333.2746,
        1490929334.43164,
        1490929336.02179,
        1490929338.34197,
        1490929339.80413,
        1490929341.573869,
        1490929343.441434,
        1490929345.452619,
        1490929347.118679,
        1490929348.913767,
        1490929351.646032,
        1490929352.919795,
        1490929354.254568,
        1490929356.682647,
        1490929358.227308,
        1490929359.365163,
        1490929360.791731,
        1490929363.183591,
        1490929364.581885,
        1490929366.21159,
        1490929368.440467,
        1490929369.855395,
        1490929371.058647,
        1490929372.543768,
        1490929374.700235,
        1490929376.149079,
        1490929377.717426,
        1490929379.089282,
        1490929381.231809,
        1490929382.857422,
        1490929384.031357,
        1490929385.694012,
        1490929387.391728,
        1490929388.537066,
        1490929390.041177,
        1490929392.026377,
        1490929393.202174,
        1490929394.497564,
        1490929395.805818,
        1490929397.455765,
        1490929399.368838,
        1490929400.946679,
        1490929402.526238,
        1490929404.25532,
        1490929405.870362,
        1490929407.382222,
        1490929408.766188,
        1490929411.236235,
        1490929412.499238,
        1490929413.889896,
        1490929415.65585,
        1490929417.636166,
        1490929418.850944,
        1490929420.511686,
        1490929421.842278,
        1490929423.511361,
        1490929425.125473,
        1490929426.333448,
        1490929428.761753,
        1490929430.300369,
        1490929431.630683,
        1490929433.02992,
        1490929435.272372,
        1490929436.511212,
        1490929437.628833,
        1490929439.085771,
        1490929441.29481,
        1490930015.513822,
        1490930017.031281,
        1490930019.238459,
        1490930020.455293,
        1490930021.834385,
        1490930023.355477,
        1490930025.338764,
        1490930026.945527,
        1490930028.229313,
        1490930029.7611,
        1490930031.659748,
        1490930033.182195,
        1490930034.873482,
        1490930036.983495,
        1490930038.744111,
        1490930040.462523,
        1490930042.506963,
        1490930044.130535,
        1490930045.856307,
        1490930047.24633,
        1490930049.37565,
        1490930051.040222,
        1490930052.406024,
        1490930053.748024,
        1490930055.579999,
        1490930056.998474,
        1490930058.206779,
        1490930059.91881,
        1490930061.884854,
        1490930063.156808,
        1490930064.423892,
        1490930066.548905,
        1490930068.187664,
        1490930069.585182,
        1490930071.026398,
        1490930073.380162,
        1490930075.090333,
        1490930076.547915,
        1490930078.978684,
        1490930080.572378,
        1490930082.117462,
        1490930083.61986,
        1490930085.783251,
        1490930087.204024,
        1490930088.501979,
        1490930090.416707,
        1490930092.012045,
        1490930093.481531,
        1490930094.818183,
        1490930096.885198,
        1490930098.440261,
        1490930100.047413,
        1490930101.291749,
        1490930103.435402,
        1490930104.949701,
        1490930106.685338,
        1490930108.883904,
        1490930110.539445,
        1490930111.859714,
        1490930113.354636,
        1490930115.457264,
        1490930117.094735,
        1490930118.47316,
        1490930120.431304,
        1490930122.174553,
        1490930123.829889,
        1490930124.891225,
        1490930126.614196,
        1490930128.157175,
        1490930129.157262,
        1490930130.512666,
        1490930131.874235,
        1490930133.991781,
        1490930135.185167,
        1490930136.591071,
        1490930137.953677,
        1490930140.059893,
        1490930141.344489,
        1490930142.704245,
        1490930143.873589,
        1490930146.299155,
        1490930147.929333,
        1490930149.004411,
        1490930150.709223,
        1490930152.035054,
        1490930153.421483,
        1490930154.591661,
        1490930155.603349,
        1490930157.526682,
        1490930158.794636,
        1490930159.955924,
        1490930161.656888,
        1490930163.79206,
        1490930165.405703,
        1490930167.220663,
        1490930169.292046,
        1490930170.765222,
        1490930172.375047,
        1490930173.786103,
        1490930175.747796,
        1490930759.17373,
        1490930760.577007,
        1490930761.83645,
        1490930763.071903,
        1490930765.262736,
        1490930766.590532,
        1490930768.033656,
        1490930769.667267,
        1490930771.89088,
        1490930773.182646,
        1490930774.521108,
        1490930776.016153,
        1490930778.210065,
        1490930779.561653,
        1490930780.862644,
        1490930782.361272,
        1490930784.495036,
        1490930785.795611,
        1490930786.894017,
        1490930788.62515,
        1490930790.277062,
        1490930791.965073,
        1490930793.321673,
        1490930795.541964,
        1490930796.642643,
        1490930798.346527,
        1490930799.876996,
        1490930801.91063,
        1490930803.391208,
        1490930804.618573,
        1490930806.414594,
        1490930808.450764,
        1490930809.960833,
        1490930811.154391,
        1490930813.572489,
        1490930814.97388,
        1490930816.266934,
        1490930817.7426,
        1490930819.901566,
        1490930820.985016,
        1490930822.196407,
        1490930823.744407,
        1490930825.971527,
        1490930827.594238,
        1490930828.951208,
        1490930830.925285,
        1490930832.702245,
        1490930834.192312,
        1490930835.484727,
        1490930837.484465,
        1490930838.687864,
        1490930839.903637,
        1490930841.18765,
        1490930843.396991,
        1490930844.754137,
        1490930845.900769,
        1490930847.382204,
        1490930848.86068,
        1490930850.779046,
        1490930852.452339,
        1490930853.93043,
        1490930855.880894,
        1490930857.357016,
        1490930858.798694,
        1490930860.093445,
        1490930862.184433,
        1490930863.331572,
        1490930864.865035,
        1490930866.015967,
        1490930868.113248,
        1490930869.873181,
        1490930871.255216,
        1490930872.724289,
        1490930874.722638,
        1490930876.028923,
        1490930877.617332,
        1490930879.778783,
        1490930881.060098,
        1490930882.076201,
        1490930883.454917,
        1490930884.57759,
        1490930886.951354,
        1490930888.149364,
        1490930889.795062,
        1490930891.983913,
        1490930893.543148,
        1490930894.892434,
        1490930896.459106,
        1490930898.669586,
        1490930900.002539,
        1490930901.48033,
        1490930903.497878,
        1490930904.851037,
        1490930906.380513,
        1490930907.995411,
        1490930910.080139,
        1490930911.303527,
        1490930912.98046,
        1490930914.26289,
        1490930916.398309,
        1490931503.00437,
        1490931504.342359,
        1490931506.629667,
        1490931508.193122,
        1490931509.587694,
        1490931511.120445,
        1490931513.116358,
        1490931514.643659,
        1490931516.151852,
        1490931517.598725,
        1490931519.541376,
        1490931521.055751,
        1490931522.65008,
        1490931524.886659,
        1490931526.091931,
        1490931527.468415,
        1490931528.865081,
        1490931531.360777,
        1490931532.814805,
        1490931533.942081,
        1490931535.792958,
        1490931537.574157,
        1490931538.709662,
        1490931540.404945,
        1490931542.800475,
        1490931544.037979,
        1490931545.415804,
        1490931547.033002,
        1490931549.179116,
        1490931550.420859,
        1490931551.987692,
        1490931553.700221,
        1490931555.574355,
        1490931557.204162,
        1490931558.947939,
        1490931561.333877,
        1490931562.664549,
        1490931564.077316,
        1490931565.361652,
        1490931567.351052,
        1490931568.739038,
        1490931570.269501,
        1490931571.644174,
        1490931573.893875,
        1490931575.292328,
        1490931576.652473,
        1490931578.267009,
        1490931579.848736,
        1490931581.180384,
        1490931582.650125,
        1490931584.218951,
        1490931586.294368,
        1490931587.687643,
        1490931589.163047,
        1490931591.011698,
        1490931592.210314,
        1490931593.740679,
        1490931595.459696,
        1490931597.370784,
        1490931598.700344,
        1490931600.358136,
        1490931601.543485,
        1490931603.895067,
        1490931605.877916,
        1490931608.281048,
        1490931610.35299,
        1490931611.815209,
        1490931613.750939,
        1490931615.790358,
        1490931617.148304,
        1490931618.586835,
        1490931620.893831,
        1490931622.16699,
        1490931623.489484,
        1490931624.804577,
        1490931627.064405,
        1490931628.137042,
        1490931629.403768,
        1490931630.736373,
        1490931632.006312,
        1490931633.951436,
        1490931635.181796,
        1490931636.904961,
        1490931638.27211,
        1490931640.070961,
        1490931641.177634,
        1490931642.420829,
        1490931643.420922,
        1490931644.833511,
        1490931646.418579,
        1490931647.680613,
        1490931649.000745,
        1490931650.140118,
        1490931652.2647,
        1490931653.445972,
        1490931654.577601,
        1490931656.321031,
        1490931658.2453,
        1490931659.436204,
        1490931661.038757,
        1490932252.253521,
        1490932254.146434,
        1490932255.363613,
        1490932256.692663,
        1490932257.850225,
        1490932260.136938,
        1490932261.51349,
        1490932262.945816,
        1490932264.17226,
        1490932265.946458,
        1490932267.12573,
        1490932268.373725,
        1490932269.67257,
        1490932271.710702,
        1490932273.30852,
        1490932274.473062,
        1490932275.644406,
        1490932277.764466,
        1490932279.100736,
        1490932280.404222,
        1490932281.976455,
        1490932284.069185,
        1490932285.699665,
        1490932286.701686,
        1490932287.884954,
        1490932289.867985,
        1490932291.03775,
        1490932292.446005,
        1490932293.798017,
        1490932295.874722,
        1490932297.215686,
        1490932298.684888,
        1490932299.815133,
        1490932301.820402,
        1490932303.212786,
        1490932304.254597,
        1490932305.439783,
        1490932306.783221,
        1490932308.583043,
        1490932310.226395,
        1490932311.408031,
        1490932312.897031,
        1490932314.715243,
        1490932316.010044,
        1490932317.311435,
        1490932318.766582,
        1490932320.741312,
        1490932322.415405,
        1490932324.144995,
        1490932326.330179,
        1490932327.839814,
        1490932329.182707,
        1490932330.76422,
        1490932332.92105,
        1490932334.057861,
        1490932335.295701,
        1490932336.399811,
        1490932338.047527,
        1490932339.047642,
        1490932340.274821,
        1490932341.406684,
        1490932342.89829,
        1490932344.872201,
        1490932346.387678,
        1490932347.746067,
        1490932349.735671,
        1490932351.112909,
        1490932352.237142,
        1490932353.642133,
        1490932355.608773,
        1490932357.102245,
        1490932358.566722,
        1490932359.735037,
        1490932361.137358,
        1490932362.697883,
        1490932363.973341,
        1490932365.297802,
        1490932366.551536,
        1490932368.592689,
        1490932370.002082,
        1490932371.223491,
        1490932372.657321,
        1490932374.826527,
        1490932376.183654,
        1490932377.646701,
        1490932378.817325,
        1490932381.140948,
        1490932382.369428,
        1490932383.556681,
        1490932384.815266,
        1490932386.591908,
        1490932387.938121,
        1490932389.227631,
        1490932390.448234,
        1490932392.748552,
        1490932394.026644,
        1490932395.308495,
        1490932396.684076,
        1490932398.591715,
        1490932399.956591,
        1490932942.229484,
        1490932943.685678,
        1490932945.076101,
        1490932946.991745,
        1490932948.21892,
        1490932949.611372,
        1490932950.91037,
        1490932953.18106,
        1490932954.493613,
        1490932955.549338,
        1490932957.190872,
        1490932959.101972,
        1490932960.652279,
        1490932962.195772,
        1490932964.383583,
        1490932965.544749,
        1490932966.952658,
        1490932968.102621,
        1490932969.739609,
        1490932971.475891,
        1490932972.935268,
        1490932974.499816,
        1490932976.617815,
        1490932977.841524,
        1490932979.195228,
        1490932980.477481,
        1490932982.389442,
        1490932983.96412,
        1490932985.294425,
        1490932986.579303,
        1490932988.449845,
        1490932990.007852,
        1490932991.351772,
        1490932992.805102,
        1490932994.946174,
        1490932996.216237,
        1490932997.608775,
        1490932998.670289,
        1490933000.760584,
        1490933002.06289,
        1490933003.477039,
        1490933004.768193,
        1490933006.76266,
        1490933008.444926,
        1490933009.556982,
        1490933010.898671,
        1490933013.093797,
        1490933014.735574,
        1490933015.987913,
        1490933018.696091,
        1490933020.060378,
        1490933021.120148,
        1490933022.722456,
        1490933024.951405,
        1490933026.546815,
        1490933027.989301,
        1490933029.838888,
        1490933031.358041,
        1490933032.932449,
        1490933034.18366,
        1490933035.928037,
        1490933037.783432,
        1490933039.266827,
        1490933040.563985,
        1490933042.38298,
        1490933044.127321,
        1490933045.455856,
        1490933046.739233,
        1490933049.091653,
        1490933050.730902,
        1490933051.99757,
        1490933053.353636,
        1490933055.177641,
        1490933056.888801,
        1490933058.334563,
        1490933059.915386,
        1490933061.931956,
        1490933063.555469,
        1490933065.119703,
        1490933066.925027,
        1490933068.312582,
        1490933069.668768,
        1490933071.168958,
        1490933073.120482,
        1490933074.354302,
        1490933075.873831,
        1490933077.159178,
        1490933079.304637,
        1490933080.44135,
        1490933081.967802,
        1490933083.563417,
        1490933085.476608,
        1490933086.780321,
        1490933088.369432,
        1490933089.915737,
        1490933091.425605,
        1490933092.781695,
        1490933094.097323,
        1490933095.260298,
        1490933097.218429,
        1490933682.617523,
        1490933684.2345,
        1490933685.619732,
        1490933688.01436,
        1490933689.45881,
        1490933690.839989,
        1490933692.866436,
        1490933693.971615,
        1490933695.358232,
        1490933696.690208,
        1490933698.348672,
        1490933700.214721,
        1490933701.521253,
        1490933703.118686,
        1490933705.935103,
        1490933707.844077,
        1490933709.680776,
        1490933711.691691,
        1490933713.461918,
        1490933715.010558,
        1490933717.556957,
        1490933719.30642,
        1490933720.471141,
        1490933722.269451,
        1490933723.956188,
        1490933725.686124,
        1490933727.056195,
        1490933728.666844,
        1490933730.516502,
        1490933731.699688,
        1490933732.811671,
        1490933733.880598,
        1490933736.202701,
        1490933737.556889,
        1490933739.191793,
        1490933740.895848,
        1490933742.183217,
        1490933743.429271,
        1490933744.967094,
        1490933746.117233,
        1490933747.861795,
        1490933749.234816,
        1490933750.531677,
        1490933751.997233,
        1490933753.971851,
        1490933755.330424,
        1490933756.835411,
        1490933758.840676,
        1490933760.299994,
        1490933762.134837,
        1490933763.753258,
        1490933765.995189,
        1490933767.589355,
        1490933769.609396,
        1490933771.595575,
        1490933772.835248,
        1490933774.340253,
        1490933775.683979,
        1490933777.610813,
        1490933779.009999,
        1490933780.226856,
        1490933781.52427,
        1490933783.522766,
        1490933784.947489,
        1490933786.636317,
        1490933787.949522,
        1490933790.237024,
        1490933791.769126,
        1490933793.081976,
        1490933794.717247,
        1490933796.254589,
        1490933797.840845,
        1490933799.339457,
        1490933801.349538,
        1490933802.754437,
        1490933804.318957,
        1490933805.679194,
        1490933807.853286,
        1490933809.033886,
        1490933810.646635,
        1490933812.058352,
        1490933814.256761,
        1490933815.614413,
        1490933817.001144,
        1490933818.913172,
        1490933820.256142,
        1490933821.714689,
        1490933823.199097,
        1490933824.626284,
        1490933826.312609,
        1490933827.590392,
        1490933829.046926,
        1490933830.591619,
        1490933832.446901,
        1490933833.985566,
        1490933835.56747,
        1490933837.24521,
        1490933838.645483,
        1490933839.876465,
        1490933841.275151,
        1490934443.844938,
        1490934446.082937,
        1490934447.581592,
        1490934449.205366,
        1490934451.010554,
        1490934452.961234,
        1490934454.309689,
        1490934455.610133,
        1490934457.612,
        1490934459.164019,
        1490934460.376933,
        1490934461.948997,
        1490934464.145417,
        1490934465.441499,
        1490934467.15894,
        1490934469.298121,
        1490934470.757925,
        1490934472.162589,
        1490934473.474522,
        1490934475.568787,
        1490934476.755574,
        1490934477.772942,
        1490934479.248003,
        1490934481.133767,
        1490934482.680253,
        1490934483.95612,
        1490934485.495011,
        1490934487.907171,
        1490934489.495907,
        1490934490.73132,
        1490934492.01481,
        1490934494.09942,
        1490934495.342189,
        1490934496.958944,
        1490934498.308626,
        1490934500.489843,
        1490934502.068805,
        1490934503.615641,
        1490934505.825704,
        1490934507.419339,
        1490934508.961941,
        1490934510.249756,
        1490934512.621589,
        1490934514.130054,
        1490934515.84162,
        1490934518.064275,
        1490934519.262901,
        1490934520.44173,
        1490934522.103063,
        1490934524.225864,
        1490934525.255644,
        1490934527.079704,
        1490934528.247478,
        1490934530.435935,
        1490934531.658997,
        1490934533.392704,
        1490934535.03109,
        1490934536.830782,
        1490934538.170531,
        1490934539.362261,
        1490934541.673545,
        1490934542.977909,
        1490934544.233799,
        1490934545.600561,
        1490934547.62786,
        1490934549.446525,
        1490934550.910033,
        1490934552.131512,
        1490934554.445447,
        1490934555.813767,
        1490934557.273796,
        1490934558.955107,
        1490934560.940287,
        1490934562.615529,
        1490934563.88042,
        1490934566.065161,
        1490934567.385701,
        1490934568.892656,
        1490934570.182671,
        1490934572.436751,
        1490934574.475227,
        1490934576.026483,
        1490934577.945103,
        1490934579.712897,
        1490934581.288485,
        1490934582.656019,
        1490934584.972577,
        1490934586.589199,
        1490934587.867766,
        1490934589.553293,
        1490934591.230432,
        1490934592.744993,
        1490934593.923031,
        1490934596.236487,
        1490934597.685866,
        1490934598.963214,
        1490934600.18937,
        1490934602.661175,
        1490934603.96491,
        1490934605.604891,
        1490935181.05819,
        1490935182.295158,
        1490935183.562934,
        1490935185.261262,
        1490935187.437883,
        1490935188.975925,
        1490935190.519246,
        1490935192.463008,
        1490935193.879774,
        1490935195.609403,
        1490935197.134374,
        1490935199.131089,
        1490935200.37627,
        1490935201.821998,
        1490935204.119533,
        1490935206.221506,
        1490935208.237837,
        1490935210.857805,
        1490935212.638191,
        1490935214.375107,
        1490935216.527416,
        1490935218.273574,
        1490935219.347587,
        1490935220.659697,
        1490935223.080839,
        1490935224.47872,
        1490935225.673035,
        1490935227.102487,
        1490935229.437998,
        1490935230.88947,
        1490935232.326409,
        1490935233.476661,
        1490935235.604165,
        1490935236.685919,
        1490935237.961034,
        1490935239.413361,
        1490935241.530332,
        1490935242.986225,
        1490935244.206188,
        1490935245.28807,
        1490935247.257474,
        1490935248.730349,
        1490935249.831888,
        1490935251.234593,
        1490935253.452822,
        1490935254.83524,
        1490935256.447506,
        1490935258.440146,
        1490935260.029701,
        1490935261.634768,
        1490935262.958226,
        1490935265.199396,
        1490935266.818703,
        1490935267.964913,
        1490935269.718986,
        1490935271.493273,
        1490935272.804526,
        1490935274.132779,
        1490935276.385321,
        1490935278.139183,
        1490935279.625998,
        1490935281.023445,
        1490935283.24685,
        1490935284.791371,
        1490935285.791486,
        1490935287.165039,
        1490935288.920789,
        1490935290.221982,
        1490935291.614548,
        1490935292.950008,
        1490935295.220348,
        1490935296.77507,
        1490935298.250998,
        1490935300.398052,
        1490935301.836672,
        1490935303.253642,
        1490935304.668077,
        1490935306.886009,
        1490935308.502711,
        1490935309.754823,
        1490935311.114407,
        1490935313.16028,
        1490935314.434625,
        1490935315.745377,
        1490935317.259277,
        1490935319.388825,
        1490935320.631127,
        1490935321.973253,
        1490935323.559939,
        1490935325.695294,
        1490935327.058711,
        1490935328.412081,
        1490935330.689933,
        1490935332.095313,
        1490935333.292918,
        1490935334.730624,
        1490935336.59523,
        1490935337.979176,
        1490935339.408642,
        1490935341.016539,
        1490935920.996354,
        1490935922.147601,
        1490935923.582201,
        1490935925.07746,
        1490935927.114273,
        1490935928.655782,
        1490935930.342806,
        1490935931.748011,
        1490935933.794876,
        1490935935.235627,
        1490935936.638239,
        1490935937.855589,
        1490935939.81537,
        1490935941.002305,
        1490935942.50173,
        1490935944.077014,
        1490935945.886447,
        1490935947.205947,
        1490935948.536021,
        1490935950.459133,
        1490935952.428262,
        1490935953.864138,
        1490935955.719874,
        1490935957.688359,
        1490935959.03999,
        1490935960.503889,
        1490935961.954984,
        1490935964.450196,
        1490935965.670173,
        1490935967.07658,
        1490935969.042617,
        1490935970.801652,
        1490935972.175804,
        1490935974.010787,
        1490935975.974171,
        1490935977.540168,
        1490935979.78698,
        1490935981.82443,
        1490935983.047342,
        1490935984.408981,
        1490935985.721422,
        1490935988.017425,
        1490935989.479903,
        1490935990.819503,
        1490935991.980351,
        1490935993.973424,
        1490935995.028702,
        1490935996.515925,
        1490935997.835857,
        1490935999.964906,
        1490936001.422177,
        1490936002.925041,
        1490936005.156369,
        1490936006.497437,
        1490936007.660844,
        1490936009.100358,
        1490936011.353422,
        1490936013.110584,
        1490936014.6815,
        1490936016.341855,
        1490936018.228013,
        1490936019.480991,
        1490936021.045922,
        1490936022.449199,
        1490936024.450238,
        1490936026.179881,
        1490936028.002956,
        1490936030.277226,
        1490936031.960258,
        1490936033.25386,
        1490936034.871283,
        1490936036.59367,
        1490936038.153924,
        1490936039.500678,
        1490936041.686777,
        1490936043.007978,
        1490936044.464085,
        1490936045.978415,
        1490936048.193002,
        1490936049.473056,
        1490936050.777332,
        1490936052.868414,
        1490936054.206644,
        1490936055.45247,
        1490936057.292498,
        1490936059.408527,
        1490936060.784551,
        1490936062.481349,
        1490936064.016172,
        1490936066.024317,
        1490936067.319218,
        1490936068.595393,
        1490936070.145262,
        1490936072.245488,
        1490936073.75156,
        1490936075.514806,
        1490936077.417996,
        1490936078.507984,
        1490936079.647857,
        1490936081.09656,
        1490936653.969049,
        1490936656.385255,
        1490936657.889122,
        1490936659.548552,
        1490936661.478363,
        1490936662.949851,
        1490936664.245097,
        1490936665.73512,
        1490936667.861528,
        1490936669.096162,
        1490936670.587296,
        1490936672.029016,
        1490936673.827447,
        1490936675.146345,
        1490936676.648072,
        1490936677.862207,
        1490936679.950047,
        1490936681.448605,
        1490936682.97839,
        1490936684.519547,
        1490936686.487171,
        1490936687.797314,
        1490936689.30917,
        1490936690.390912,
        1490936692.44851,
        1490936693.911647,
        1490936694.934952,
        1490936696.57196,
        1490936698.659645,
        1490936699.933706,
        1490936701.518964,
        1490936703.598009,
        1490936705.775102,
        1490936707.659192,
        1490936709.744959,
        1490936711.392968,
        1490936712.930548,
        1490936714.358344,
        1490936716.292373,
        1490936718.025634,
        1490936719.510999,
        1490936721.572719,
        1490936722.962717,
        1490936724.461342,
        1490936726.300239,
        1490936728.40814,
        1490936730.013866,
        1490936731.620408,
        1490936733.844545,
        1490936735.118737,
        1490936736.669929,
        1490936738.092836,
        1490936740.083273,
        1490936741.428982,
        1490936742.874275,
        1490936744.042625,
        1490936745.84096,
        1490936747.367372,
        1490936748.413362,
        1490936749.549865,
        1490936751.536494,
        1490936753.205609,
        1490936754.487421,
        1490936755.703406,
        1490936757.936336,
        1490936759.54875,
        1490936760.929875,
        1490936762.323612,
        1490936764.220871,
        1490936766.013069,
        1490936767.43361,
        1490936768.804216,
        1490936770.768126,
        1490936772.373995,
        1490936774.015913,
        1490936775.980646,
        1490936777.512098,
        1490936778.960094,
        1490936780.361311,
        1490936782.351543,
        1490936783.675297,
        1490936784.842709,
        1490936786.229281,
        1490936788.308131,
        1490936789.400291,
        1490936790.833442,
        1490936792.259004,
        1490936794.211849,
        1490936795.582084,
        1490936797.285981,
        1490936799.442366,
        1490936800.694395,
        1490936802.295156,
        1490936803.652839,
        1490936805.565311,
        1490936807.056347,
        1490936808.36283,
        1490936809.773623,
        1490936812.046489,
        1490936813.538829,
        1490937388.100171,
        1490937390.098463,
        1490937391.821446,
        1490937393.128637,
        1490937395.117956,
        1490937396.924654,
        1490937398.245839,
        1490937399.510815,
        1490937401.730651,
        1490937403.068164,
        1490937404.399877,
        1490937405.810762,
        1490937408.111523,
        1490937409.175976,
        1490937410.500733,
        1490937411.570537,
        1490937412.901218,
        1490937414.921864,
        1490937416.506252,
        1490937417.507908,
        1490937418.787141,
        1490937420.779185,
        1490937422.4462,
        1490937423.776988,
        1490937426.000408,
        1490937427.210224,
        1490937428.596604,
        1490937429.924436,
        1490937432.27806,
        1490937433.778854,
        1490937434.900616,
        1490937436.095598,
        1490937438.365788,
        1490937439.8947,
        1490937441.317904,
        1490937442.580996,
        1490937445.032414,
        1490937446.312669,
        1490937447.789637,
        1490937449.567137,
        1490937450.988946,
        1490937452.444415,
        1490937453.711715,
        1490937455.969552,
        1490937457.332629,
        1490937458.703544,
        1490937460.156673,
        1490937462.479112,
        1490937463.755724,
        1490937464.947421,
        1490937466.387032,
        1490937468.529839,
        1490937470.027145,
        1490937471.373988,
        1490937473.072175,
        1490937475.119405,
        1490937476.627502,
        1490937477.911589,
        1490937479.310942,
        1490937481.386697,
        1490937482.882056,
        1490937484.579768,
        1490937486.943651,
        1490937488.474703,
        1490937490.23284,
        1490937492.411202,
        1490937493.893791,
        1490937495.298261,
        1490937496.579947,
        1490937499.245287,
        1490937500.476262,
        1490937502.689848,
        1490937504.978267,
        1490937506.53453,
        1490937507.98832,
        1490937510.059169,
        1490937511.613649,
        1490937513.056564,
        1490937514.315648,
        1490937516.682571,
        1490937517.987799,
        1490937519.092628,
        1490937520.346541,
        1490937522.635146,
        1490937523.986273,
        1490937525.093579,
        1490937526.412475,
        1490937528.543992,
        1490937530.245157,
        1490937532.172037,
        1490937533.696048,
        1490937535.388584,
        1490937537.114959,
        1490937538.403323,
        1490937539.957226,
        1490937541.946104,
        1490937543.590504,
        1490937545.117265,
        1490937547.107835,
        1490937548.60402,
        1490938128.139204,
        1490938129.976908,
        1490938131.659468,
        1490938133.156873,
        1490938134.564472,
        1490938136.282848,
        1490938137.652179,
        1490938139.123651,
        1490938140.774649,
        1490938143.095697,
        1490938144.556281,
        1490938145.837328,
        1490938147.48174,
        1490938149.301186,
        1490938150.491703,
        1490938151.874443,
        1490938153.399329,
        1490938155.393511,
        1490938156.9788,
        1490938158.321951,
        1490938159.820877,
        1490938161.54091,
        1490938162.572674,
        1490938164.179962,
        1490938165.649344,
        1490938167.595484,
        1490938169.34592,
        1490938171.316283,
        1490938173.563619,
        1490938175.017267,
        1490938176.200083,
        1490938178.598303,
        1490938179.646302,
        1490938181.113371,
        1490938182.634248,
        1490938184.933371,
        1490938186.645235,
        1490938188.135928,
        1490938189.884577,
        1490938191.368613,
        1490938192.745033,
        1490938194.654476,
        1490938196.447164,
        1490938197.914932,
        1490938199.463451,
        1490938200.903196,
        1490938203.342574,
        1490938205.180077,
        1490938207.336031,
        1490938209.689387,
        1490938211.481048,
        1490938213.08636,
        1490938215.18628,
        1490938216.571675,
        1490938218.131213,
        1490938219.465194,
        1490938221.607872,
        1490938223.405179,
        1490938224.909454,
        1490938226.800576,
        1490938227.860015,
        1490938229.493205,
        1490938230.961311,
        1490938233.30475,
        1490938234.835623,
        1490938236.540063,
        1490938238.280085,
        1490938239.611059,
        1490938240.853065,
        1490938242.296664,
        1490938243.590559,
        1490938245.261859,
        1490938246.293906,
        1490938247.607924,
        1490938248.629956,
        1490938250.708665,
        1490938251.83406,
        1490938252.988043,
        1490938254.272265,
        1490938256.376943,
        1490938257.823282,
        1490938259.446052,
        1490938260.593828,
        1490938261.945767,
        1490938263.860197,
        1490938265.295323,
        1490938266.488756,
        1490938268.021543,
        1490938270.077328,
        1490938271.811157,
        1490938273.302654,
        1490938275.469394,
        1490938276.68261,
        1490938278.174304,
        1490938279.727492,
        1490938281.626635,
        1490938282.917832,
        1490938284.319277,
        1490938285.901739,
        1490938287.777712,
        1490938841.739798,
        1490938842.852976,
        1490938844.597623,
        1490938847.065467,
        1490938848.306151,
        1490938849.519713,
        1490938850.615591,
        1490938851.820069,
        1490938853.984448,
        1490938855.255743,
        1490938856.69342,
        1490938858.482173,
        1490938860.390331,
        1490938862.11284,
        1490938863.557242,
        1490938865.706782,
        1490938867.189052,
        1490938868.480616,
        1490938869.80005,
        1490938871.683085,
        1490938873.21912,
        1490938874.430446,
        1490938876.163199,
        1490938878.374777,
        1490938879.82445,
        1490938881.231969,
        1490938883.202484,
        1490938884.962982,
        1490938886.013452,
        1490938887.354598,
        1490938889.478253,
        1490938891.202254,
        1490938892.33779,
        1490938893.599147,
        1490938895.761739,
        1490938897.370598,
        1490938898.761564,
        1490938900.085155,
        1490938901.969251,
        1490938903.165338,
        1490938904.423539,
        1490938905.929808,
        1490938908.015758,
        1490938909.491451,
        1490938910.8877,
        1490938912.143926,
        1490938914.32127,
        1490938915.706252,
        1490938917.357501,
        1490938919.372729,
        1490938920.588603,
        1490938922.120686,
        1490938923.468271,
        1490938925.626117,
        1490938926.858743,
        1490938928.244319,
        1490938929.392861,
        1490938931.319237,
        1490938933.058599,
        1490938934.377042,
        1490938935.822193,
        1490938937.779511,
        1490938939.433414,
        1490938941.084751,
        1490938942.720998,
        1490938944.687432,
        1490938945.947995,
        1490938947.203631,
        1490938948.716067,
        1490938950.781712,
        1490938952.224576,
        1490938953.764066,
        1490938955.741857,
        1490938956.958928,
        1490938958.550717,
        1490938959.641483,
        1490938961.681998,
        1490938963.128366,
        1490938964.609715,
        1490938965.868841,
        1490938967.89343,
        1490938969.724066,
        1490938971.145447,
        1490938972.428271,
        1490938974.657082,
        1490938975.844086,
        1490938977.263498,
        1490938978.792045,
        1490938980.752678,
        1490938982.242215,
        1490938983.507709,
        1490938985.871814,
        1490938987.17094,
        1490938988.691008,
        1490938989.860448,
        1490938992.097528,
        1490938993.373519,
        1490938994.626305,
        1490938996.227899,
        1490938998.667104,
        1490939576.196695,
        1490939577.75284,
        1490939579.035682,
        1490939580.624991,
        1490939582.659995,
        1490939584.088357,
        1490939585.850535,
        1490939587.454218,
        1490939589.296112,
        1490939590.756504,
        1490939591.833146,
        1490939592.978043,
        1490939595.376702,
        1490939596.682737,
        1490939598.302229,
        1490939599.428212,
        1490939601.489266,
        1490939602.87607,
        1490939604.079299,
        1490939605.22834,
        1490939607.152761,
        1490939608.268621,
        1490939609.669244,
        1490939611.178518,
        1490939613.508226,
        1490939614.72703,
        1490939616.293261,
        1490939618.599964,
        1490939620.080317,
        1490939621.348614,
        1490939622.807648,
        1490939625.389455,
        1490939626.594576,
        1490939627.998953,
        1490939630.016846,
        1490939631.664629,
        1490939633.093586,
        1490939634.34004,
        1490939636.687857,
        1490939638.247383,
        1490939639.648259,
        1490939640.963577,
        1490939643.074041,
        1490939644.903031,
        1490939646.349095,
        1490939648.081275,
        1490939650.086027,
        1490939651.825968,
        1490939653.135507,
        1490939655.291792,
        1490939656.796101,
        1490939657.970167,
        1490939659.358695,
        1490939661.487334,
        1490939662.718808,
        1490939663.990783,
        1490939665.074109,
        1490939667.175545,
        1490939668.655635,
        1490939670.130236,
        1490939671.562928,
        1490939673.559314,
        1490939674.845901,
        1490939676.131497,
        1490939677.604222,
        1490939679.861203,
        1490939681.487794,
        1490939682.861178,
        1490939685.055154,
        1490939686.502788,
        1490939688.119127,
        1490939689.599793,
        1490939691.784993,
        1490939692.962854,
        1490939694.334245,
        1490939696.039309,
        1490939697.980898,
        1490939699.49719,
        1490939701.016331,
        1490939703.016125,
        1490939704.715847,
        1490939706.727748,
        1490939709.293905,
        1490939710.962292,
        1490939712.216797,
        1490939713.537543,
        1490939715.528594,
        1490939717.159789,
        1490939718.677229,
        1490939721.133475,
        1490939722.566436,
        1490939723.742823,
        1490939725.08969,
        1490939727.297582,
        1490939728.402241,
        1490939729.412971,
        1490939730.872654,
        1490939732.867457,
        1490939734.217545,
        1490939735.511225,
        1490940310.100228,
        1490940312.543645,
        1490940314.087248,
        1490940315.648749,
        1490940317.727559,
        1490940319.08682,
        1490940320.596839,
        1490940322.120627,
        1490940324.20398,
        1490940325.686947,
        1490940326.892246,
        1490940328.372783,
        1490940330.114423,
        1490940331.962542,
        1490940333.504818,
        1490940335.120578,
        1490940337.023524,
        1490940338.638302,
        1490940340.580172,
        1490940342.678729,
        1490940343.678826,
        1490940344.9747,
        1490940346.227736,
        1490940348.333394,
        1490940349.462228,
        1490940351.020439,
        1490940352.413112,
        1490940354.34027,
        1490940355.791527,
        1490940357.242771,
        1490940358.724208,
        1490940360.826135,
        1490940362.369249,
        1490940363.811904,
        1490940365.949266,
        1490940367.61455,
        1490940369.206498,
        1490940370.692744,
        1490940372.637999,
        1490940373.995691,
        1490940375.39997,
        1490940376.717564,
        1490940378.74445,
        1490940380.155974,
        1490940381.518716,
        1490940383.196066,
        1490940385.325337,
        1490940387.185905,
        1490940388.829822,
        1490940390.853235,
        1490940392.72996,
        1490940394.196899,
        1490940396.368461,
        1490940398.234811,
        1490940399.470542,
        1490940400.924483,
        1490940403.1473,
        1490940404.614406,
        1490940406.015607,
        1490940408.198163,
        1490940409.587765,
        1490940411.133126,
        1490940412.643475,
        1490940414.717215,
        1490940416.051862,
        1490940417.567254,
        1490940418.830319,
        1490940420.675923,
        1490940422.502337,
        1490940423.878538,
        1490940425.819687,
        1490940427.112443,
        1490940428.733056,
        1490940430.220892,
        1490940432.249566,
        1490940433.761707,
        1490940435.272439,
        1490940436.859873,
        1490940438.807315,
        1490940440.189691,
        1490940441.937098,
        1490940443.664166,
        1490940445.597681,
        1490940446.925681,
        1490940448.446526,
        1490940450.893322,
        1490940452.568512,
        1490940454.369177,
        1490940456.88215,
        1490940458.427236,
        1490940459.966551,
        1490940461.945126,
        1490940464.001016,
        1490940465.402664,
        1490940466.948858,
        1490940469.370199,
        1490940470.985771,
        1490940472.361711,
        1490940473.736119,
        1490940475.604002,
        1490941068.371067,
        1490941069.806963,
        1490941072.045296,
        1490941073.428618,
        1490941074.821506,
        1490941076.925351,
        1490941078.182591,
        1490941079.602948,
        1490941080.90418,
        1490941083.37999,
        1490941085.084562,
        1490941086.580801,
        1490941089.063744,
        1490941090.526923,
        1490941092.17107,
        1490941093.446825,
        1490941095.773384,
        1490941097.285706,
        1490941098.482093,
        1490941100.018132,
        1490941101.976124,
        1490941103.240694,
        1490941105.047056,
        1490941107.388424,
        1490941108.893156,
        1490941110.418571,
        1490941111.692109,
        1490941113.726889,
        1490941115.332052,
        1490941116.730519,
        1490941118.226928,
        1490941120.262451,
        1490941121.780575,
        1490941123.204911,
        1490941124.963527,
        1490941126.549158,
        1490941127.981317,
        1490941129.553714,
        1490941131.812494,
        1490941133.211575,
        1490941134.648159,
        1490941136.103255,
        1490941138.20441,
        1490941139.45426,
        1490941140.851206,
        1490941142.478833,
        1490941144.270155,
        1490941145.84303,
        1490941147.02401,
        1490941149.53485,
        1490941150.686196,
        1490941151.891412,
        1490941153.345232,
        1490941155.693734,
        1490941157.476178,
        1490941158.729865,
        1490941160.017661,
        1490941162.049334,
        1490941163.67812,
        1490941165.098325,
        1490941167.462785,
        1490941168.875998,
        1490941170.264878,
        1490941171.640476,
        1490941173.68738,
        1490941175.118023,
        1490941176.624127,
        1490941178.403106,
        1490941180.503115,
        1490941182.060912,
        1490941183.457745,
        1490941185.708093,
        1490941187.604929,
        1490941188.931747,
        1490941190.437306,
        1490941192.620314,
        1490941194.091497,
        1490941195.570572,
        1490941197.872522,
        1490941199.161244,
        1490941200.669035,
        1490941202.358833,
        1490941204.801306,
        1490941206.861359,
        1490941208.464307,
        1490941210.659047,
        1490941211.679435,
        1490941212.961103,
        1490941214.611884,
        1490941216.741507,
        1490941218.225315,
        1490941219.52908,
        1490941221.369368,
        1490941222.785171,
        1490941224.210937,
        1490941225.317921,
        1490941227.357429,
        1490941228.560375,
        1490941229.560528,
        1490941230.980773,
        1490941816.653686,
        1490941818.830031,
        1490941820.00546,
