start time Write10-75GB-1:
1490923077.919787116
end time Write10-75GB-1:
1490923193.987256789
start time Write5-5GB-1:
1490923209.547119353
end time Write5-5GB-1:
1490923327.567169380
start time Write21-5GB-1:
1490923342.743169708
end time Write21-5GB-1:
1490923458.404133881
start time Write5-5GB-2:
1490923473.583183955
end time Write5-5GB-2:
1490923592.271394109
start time Write5-5GB-3:
1490923607.447225296
end time Write5-5GB-3:
1490923725.355622601
start time Write7-5GB-1:
1490923740.530525761
end time Write7-5GB-1:
1490923859.495053606
start time Write10-75GB-2:
1490923874.670988185
end time Write10-75GB-2:
1490923990.695311740
start time Write21-5GB-2:
1490924005.874227424
end time Write21-5GB-2:
1490924121.676713411
start time Write10-75GB-3:
1490924136.860561660
end time Write10-75GB-3:
1490924262.283491628
start time Write21-5GB-3:
1490924277.467484680
end time Write21-5GB-3:
1490924403.597266736
start time Write5-5GB-4:
1490924418.779244344
end time Write5-5GB-4:
1490924547.222175054
start time Write10-75GB-4:
1490924562.398913372
end time Write10-75GB-4:
1490924688.775255024
start time Write10-75GB-5:
1490924703.955572989
end time Write10-75GB-5:
1490924830.519584095
start time Write7-5GB-2:
1490924845.701242817
end time Write7-5GB-2:
1490924975.523563693
start time Write7-5GB-3:
1490924990.703154870
end time Write7-5GB-3:
1490925120.716875798
start time Write7-5GB-4:
1490925135.923950278
end time Write7-5GB-4:
1490925265.531401489
start time Write7-5GB-5:
1490925280.712321727
end time Write7-5GB-5:
1490925410.384941280
start time Write7-5GB-6:
1490925425.562453751
end time Write7-5GB-6:
1490925555.199117659
start time Write7-5GB-7:
1490925570.375078006
end time Write7-5GB-7:
1490925699.915541452
start time Write7-5GB-8:
1490925715.095479867
end time Write7-5GB-8:
1490925844.524486872
start time Write7-5GB-9:
1490925859.707533624
end time Write7-5GB-9:
1490925989.531536605
start time Write5-5GB-5:
1490926004.707274287
end time Write5-5GB-5:
1490926133.139592160
start time Write21-5GB-4:
1490926148.315475358
end time Write21-5GB-4:
1490926274.439198102
start time Write10-75GB-6:
1490926289.624730884
end time Write10-75GB-6:
1490926415.893472997
start time Write7-5GB-10:
1490926431.084332465
end time Write7-5GB-10:
1490926560.675468755
start time Write7-5GB-11:
1490926575.850782692
end time Write7-5GB-11:
1490926705.496773701
start time Write21-5GB-5:
1490926720.679478800
end time Write21-5GB-5:
1490926846.663094334
start time Write10-75GB-7:
1490926861.834165632
end time Write10-75GB-7:
1490926988.179548096
start time Write21-5GB-6:
1490927003.355055033
end time Write21-5GB-6:
1490927129.231519568
start time Write21-5GB-7:
1490927144.407266360
end time Write21-5GB-7:
1490927270.551581515
start time Write7-5GB-12:
1490927285.740507893
end time Write7-5GB-12:
1490927415.419552046
start time Write21-5GB-8:
1490927430.603475063
end time Write21-5GB-8:
1490927556.627438198
start time Write7-5GB-13:
1490927571.807637845
end time Write7-5GB-13:
1490927701.407701761
start time Write5-5GB-6:
1490927716.592803337
end time Write5-5GB-6:
1490927845.099296341
start time Write21-5GB-9:
1490927860.275747563
end time Write21-5GB-9:
1490927986.427569045
start time Write21-5GB-10:
1490928001.611251011
end time Write21-5GB-10:
1490928127.415360319
start time Write10-75GB-8:
1490928142.591683964
end time Write10-75GB-8:
1490928268.962055256
start time Write5-5GB-7:
1490928284.186778815
end time Write5-5GB-7:
1490928412.483367537
start time Write10-75GB-9:
1490928428.033992679
end time Write10-75GB-9:
1490928554.499782491
start time Write21-5GB-11:
1490928569.675199849
end time Write21-5GB-11:
1490928695.679392809
start time Write10-75GB-10:
1490928710.855706768
end time Write10-75GB-10:
1490928837.095292402
start time Write10-75GB-11:
1490928852.279288303
end time Write10-75GB-11:
1490928978.675699907
start time Write7-5GB-14:
1490928993.851849464
end time Write7-5GB-14:
1490929123.445755418
start time Write5-5GB-8:
1490929138.643481185
end time Write5-5GB-8:
1490929267.307684426
start time Write5-5GB-9:
1490929282.499522761
end time Write5-5GB-9:
1490929411.103385551
start time Write5-5GB-10:
1490929426.287339064
end time Write5-5GB-10:
1490929554.495375488
start time Write21-5GB-12:
1490929569.699343163
end time Write21-5GB-12:
1490929696.067360012
start time Write21-5GB-13:
1490929711.242824737
end time Write21-5GB-13:
1490929837.402406881
start time Write10-75GB-12:
1490929852.569995876
end time Write10-75GB-12:
1490929978.835563517
start time Write7-5GB-15:
1490929994.011146434
end time Write7-5GB-15:
1490930123.962187428
start time Write7-5GB-16:
1490930139.134417587
end time Write7-5GB-16:
1490930268.957993962
start time Write7-5GB-17:
1490930284.142217032
end time Write7-5GB-17:
1490930413.794724534
start time Write5-5GB-11:
1490930428.969960779
end time Write5-5GB-11:
1490930557.563335749
start time Write7-5GB-18:
1490930572.742255270
end time Write7-5GB-18:
1490930702.747489939
start time Write21-5GB-14:
1490930717.926405861
end time Write21-5GB-14:
1490930843.694000222
start time Write7-5GB-19:
1490930858.871535963
end time Write7-5GB-19:
1490930988.740710148
start time Write21-5GB-15:
1490931003.927778376
end time Write21-5GB-15:
1490931129.739242659
start time Write21-5GB-16:
1490931144.915755825
end time Write21-5GB-16:
1490931271.239299277
start time Write7-5GB-20:
1490931286.415413631
end time Write7-5GB-20:
1490931415.967697190
start time Write5-5GB-12:
1490931431.147240345
end time Write5-5GB-12:
1490931559.567513373
start time Write21-5GB-17:
1490931574.747505393
end time Write21-5GB-17:
1490931700.859189361
start time Write5-5GB-13:
1490931716.442628502
end time Write5-5GB-13:
1490931845.465447634
start time Write7-5GB-21:
1490931860.639042982
end time Write7-5GB-21:
1490931990.359627876
start time Write7-5GB-22:
1490932005.539625837
end time Write7-5GB-22:
1490932135.231383204
start time Write10-75GB-13:
1490932150.407115244
end time Write10-75GB-13:
1490932276.870218328
start time Write10-75GB-14:
1490932292.054233386
end time Write10-75GB-14:
1490932418.487723950
start time Write10-75GB-15:
1490932433.672563703
end time Write10-75GB-15:
1490932560.174538825
start time Write10-75GB-16:
1490932575.384001469
end time Write10-75GB-16:
1490932701.928906505
start time Write21-5GB-18:
1490932717.120401689
end time Write21-5GB-18:
1490932843.169704405
start time Write7-5GB-23:
1490932858.347224939
end time Write7-5GB-23:
1490932987.955283547
start time Write5-5GB-14:
1490933003.134906110
end time Write5-5GB-14:
1490933132.052492053
start time Write10-75GB-17:
1490933147.226317150
end time Write10-75GB-17:
1490933274.099068779
start time Write7-5GB-24:
1490933289.283269413
end time Write7-5GB-24:
1490933419.043717638
start time Write5-5GB-15:
1490933434.219357586
end time Write5-5GB-15:
1490933562.531761946
start time Write5-5GB-16:
1490933577.707001028
end time Write5-5GB-16:
1490933706.332910683
start time Write21-5GB-19:
1490933721.519099537
end time Write21-5GB-19:
1490933847.535215779
start time Write5-5GB-17:
1490933862.711923156
end time Write5-5GB-17:
1490933991.539287226
start time Write21-5GB-20:
1490934006.745604607
end time Write21-5GB-20:
1490934132.975617825
start time Write10-75GB-18:
1490934148.156349576
end time Write10-75GB-18:
1490934274.412231620
start time Write10-75GB-19:
1490934289.587468708
end time Write10-75GB-19:
1490934416.035339167
start time Write7-5GB-25:
1490934431.211760252
end time Write7-5GB-25:
1490934560.976074129
start time Write10-75GB-20:
1490934576.163950816
end time Write10-75GB-20:
1490934702.990930095
start time Write7-5GB-26:
1490934718.179575138
end time Write7-5GB-26:
1490934847.947130766
start time Write7-5GB-27:
1490934863.123397819
end time Write7-5GB-27:
1490934992.819766739
start time Write7-5GB-28:
1490935007.995336172
end time Write7-5GB-28:
1490935137.603828121
start time Write21-5GB-21:
1490935152.795611774
end time Write21-5GB-21:
1490935278.855835800
start time Write10-75GB-21:
1490935294.030888133
end time Write10-75GB-21:
1490935420.177968839
start time Write10-75GB-22:
1490935435.349990458
end time Write10-75GB-22:
1490935561.771226526
start time Write10-75GB-23:
1490935576.947525442
end time Write10-75GB-23:
1490935703.579504936
start time Write10-75GB-24:
1490935718.759094894
end time Write10-75GB-24:
1490935845.243447371
start time Write21-5GB-22:
1490935860.416839587
end time Write21-5GB-22:
1490935986.403769306
start time Write21-5GB-23:
1490936001.579210743
end time Write21-5GB-23:
1490936127.706929128
start time Write5-5GB-18:
1490936142.887548084
end time Write5-5GB-18:
1490936284.687452364
start time Write10-75GB-25:
1490936299.862200493
end time Write10-75GB-25:
1490936426.779052042
start time Write7-5GB-29:
1490936441.955413111
end time Write7-5GB-29:
1490936571.543381608
start time Write10-75GB-26:
1490936586.740716477
end time Write10-75GB-26:
1490936713.108013560
start time Write7-5GB-30:
1490936728.303834636
end time Write7-5GB-30:
1490936858.127524942
start time Write7-5GB-31:
1490936873.304024690
end time Write7-5GB-31:
1490937003.022333788
start time Write5-5GB-19:
1490937018.203158048
end time Write5-5GB-19:
1490937147.031201336
start time Write21-5GB-24:
1490937162.207811866
end time Write21-5GB-24:
1490937288.399611899
start time Write10-75GB-27:
1490937303.575203277
end time Write10-75GB-27:
1490937429.956727374
start time Write5-5GB-20:
1490937445.135757229
end time Write5-5GB-20:
1490937573.774471022
start time Write5-5GB-21:
1490937588.951355238
end time Write5-5GB-21:
1490937717.771699857
start time Write5-5GB-22:
1490937732.950619978
end time Write5-5GB-22:
1490937861.650638509
start time Write5-5GB-23:
1490937876.826649387
end time Write5-5GB-23:
1490938005.473725123
start time Write21-5GB-25:
1490938020.659552327
end time Write21-5GB-25:
1490938146.911349415
start time Write21-5GB-26:
1490938162.087127104
end time Write21-5GB-26:
1490938288.253208586
start time Write5-5GB-24:
1490938303.436352022
end time Write5-5GB-24:
1490938431.863481463
start time Write21-5GB-27:
1490938447.039187108
end time Write21-5GB-27:
1490938573.178705597
start time Write5-5GB-25:
1490938588.354537298
end time Write5-5GB-25:
1490938716.639029417
start time Write5-5GB-26:
1490938731.827872865
end time Write5-5GB-26:
1490938860.430751710
start time Write5-5GB-27:
1490938875.606510797
end time Write5-5GB-27:
1490939004.284113857
start time Write10-75GB-28:
1490939019.460212495
end time Write10-75GB-28:
1490939145.871763907
start time Write21-5GB-28:
1490939161.047094620
end time Write21-5GB-28:
1490939287.371964882
start time Write5-5GB-28:
1490939302.547601298
end time Write5-5GB-28:
1490939431.119314339
start time Write21-5GB-29:
1490939446.300902808
end time Write21-5GB-29:
1490939572.275192090
start time Write21-5GB-30:
1490939587.451337511
end time Write21-5GB-30:
1490939713.437441836
start time Write5-5GB-29:
1490939728.611620541
end time Write5-5GB-29:
1490939857.408271094
start time Write5-5GB-30:
1490939872.587857929
end time Write5-5GB-30:
1490940001.288781079
start time Write10-75GB-29:
1490940016.471498460
end time Write10-75GB-29:
1490940142.850613949
start time Write5-5GB-31:
1490940158.035328913
end time Write5-5GB-31:
1490940286.531882738
start time Write5-5GB-32:
1490940301.709978307
end time Write5-5GB-32:
1490940430.518540303
start time Write10-75GB-30:
1490940445.968853039
end time Write10-75GB-30:
1490940572.566292155
start time Write7-5GB-32:
1490940587.739570602
end time Write7-5GB-32:
1490940717.740941818
start time Write21-5GB-31:
1490940732.915134124
end time Write21-5GB-31:
1490940859.122348307
start time Write21-5GB-32:
1490940874.307141134
end time Write21-5GB-32:
1490941000.259609529
start time Write10-75GB-31:
1490941015.435828048
end time Write10-75GB-31:
1490941141.937268731
start time Write10-75GB-32:
1490941157.174950667
end time Write10-75GB-32:
1490941283.747990021
