timestamp;rms1;rms2;rms3
15:28:03.240;0.4334;0.834;2.512
15:28:03.740;0.4334;0.839;2.513
15:28:04.241;0.4335;0.838;2.513
15:28:04.741;0.4334;0.836;2.513
15:28:05.241;0.4336;0.833;2.514
15:28:05.741;0.433;0.842;2.513
15:28:06.241;0.4338;0.841;2.513
15:28:06.741;0.4339;0.835;2.512
15:28:07.241;0.4338;0.84;2.512
15:28:07.741;0.4339;0.832;2.512
15:28:08.241;0.4332;0.833;2.513
15:28:08.741;0.4338;0.8368;2.513
15:28:09.241;0.4331;0.833;2.513
15:28:09.741;0.4337;0.837;2.513
15:28:10.241;0.4341;0.827;2.511
15:28:10.741;0.4336;0.8304;2.513
15:28:11.241;0.4331;0.827;2.512
15:28:11.741;0.4331;0.831;2.512
15:28:12.241;0.4339;0.833;2.512
15:28:12.740;0.4338;0.836;2.513
15:28:13.240;0.4334;1.348;2.513
-----
15:28:13.740;0.4331;0.974;2.538
15:28:14.240;0.4337;0.977;2.539
15:28:14.740;0.4333;0.978;2.538
15:28:15.240;0.4337;0.98;2.538
15:28:15.740;0.4333;0.972;2.539
15:28:16.240;0.4335;0.972;2.538
15:28:16.740;0.4331;0.978;2.539
15:28:17.240;0.4331;0.985;2.538
15:28:17.740;0.4336;0.977;2.538
15:28:18.240;0.4335;0.978;2.539
15:28:18.740;0.4336;0.978;2.539
15:28:19.240;0.4336;0.976;2.539
15:28:19.740;0.4338;0.975;2.537
15:28:20.240;0.4339;0.973;2.538
15:28:20.740;0.4336;0.979;2.538
15:28:21.240;0.4333;0.973;2.538
15:28:21.741;0.4338;0.978;2.538
15:28:22.241;0.434;0.973;2.538
15:28:22.741;0.433;0.981;2.538
15:28:23.241;0.4335;0.97;2.537
15:28:23.741;0.4336;0.975;2.538
15:28:24.241;0.4333;0.972;2.538
15:28:24.741;0.4335;0.973;2.539
15:28:25.241;0.4341;0.972;2.538
15:28:25.741;0.4337;0.973;2.538
15:28:26.241;0.4337;0.976;2.536
15:28:26.741;0.4335;0.979;2.538
15:28:27.241;0.434;0.976;2.54
15:28:27.741;0.4339;0.978;2.538
15:28:28.241;0.4333;0.972;2.539
15:28:28.741;0.4337;0.978;2.539
15:28:29.241;0.4336;0.972;2.537
15:28:29.741;0.4335;0.974;2.537
15:28:30.240;0.4341;0.977;2.54
15:28:30.740;0.4336;0.987;2.538
15:28:31.240;0.4339;0.971;2.537
15:28:31.740;0.4339;0.97;2.538
15:28:32.240;0.4338;0.973;2.539
15:28:32.740;0.4334;0.972;2.539
15:28:33.240;0.4336;0.97;2.538
15:28:33.740;0.434;0.974;2.538
15:28:34.240;0.4333;0.967;2.538
15:28:34.740;0.4333;0.982;2.539
15:28:35.240;0.4334;0.978;2.538
15:28:35.740;0.4341;0.974;2.538
15:28:36.240;0.4335;0.978;2.537
15:28:36.740;0.4337;0.972;2.538
15:28:37.240;0.4335;0.976;2.539
15:28:37.740;0.4334;0.976;2.539
15:28:38.240;0.4339;0.973;2.538
15:28:38.740;0.4328;0.984;2.539
15:28:39.241;0.4337;0.974;2.538
15:28:39.741;0.4337;0.975;2.537
15:28:40.241;0.4339;0.981;2.539
15:28:40.741;0.4333;0.975;2.538
15:28:41.241;0.4336;0.972;2.538
15:28:41.741;0.4337;0.977;2.539
15:28:42.241;0.4332;0.982;2.539
15:28:42.741;0.4334;0.974;2.538
15:28:43.241;0.4336;0.976;2.539
15:28:43.741;0.4337;0.978;2.538
15:28:44.241;0.4326;0.979;2.539
15:28:44.741;0.4332;0.975;2.539
15:28:45.241;0.4331;0.972;2.537
15:28:45.741;0.4333;0.973;2.537
15:28:46.241;0.4333;0.978;2.538
15:28:46.741;0.433;0.974;2.537
15:28:47.241;0.4335;0.974;2.537
15:28:47.740;0.4335;0.978;2.538
15:28:48.240;0.4333;0.974;2.538
15:28:48.740;0.4335;0.978;2.539
15:28:49.240;0.4339;0.973;2.538
15:28:49.740;0.4341;0.977;2.538
15:28:50.240;0.4332;0.974;2.538
15:28:50.740;0.4339;0.996;2.54
15:28:51.240;0.4339;0.977;2.539
15:28:51.740;0.4335;0.975;2.538
15:28:52.240;0.4338;0.976;2.539
15:28:52.740;0.4342;0.829;2.514
