timestamp;rms1;rms2;rms3
15:23:23.240;0.4322;0.831;2.511
15:23:23.740;0.432;0.833;2.511
15:23:24.240;0.4325;0.836;2.511
15:23:24.741;0.4321;0.83;2.511
15:23:25.241;0.4321;0.834;2.511
15:23:25.741;0.4321;0.838;2.511
15:23:26.241;0.4317;0.835;2.511
15:23:26.741;0.4322;0.831;2.512
15:23:27.242;0.4323;0.8366;2.51
15:23:27.741;0.4324;0.834;2.511
15:23:28.241;0.4326;0.84;2.51
15:23:28.742;0.4322;0.839;2.511
15:23:29.242;0.432;0.846;2.511
15:23:29.741;0.4315;0.836;2.51
15:23:30.241;0.4323;0.837;2.512
15:23:30.741;0.432;0.833;2.512
15:23:31.242;0.4323;0.834;2.513
15:23:31.741;0.4319;0.834;2.513
15:23:32.241;0.4318;0.834;2.513
15:23:32.741;0.4316;0.983;2.525
15:23:33.240;0.4313;0.983;2.537
-----
15:23:33.741;0.4315;0.977;2.538
15:23:34.241;0.4317;0.983;2.536
15:23:34.741;0.4322;0.975;2.539
15:23:35.240;0.4318;0.977;2.537
15:23:35.740;0.4319;0.98;2.539
15:23:36.241;0.432;0.982;2.538
15:23:36.741;0.4318;0.98;2.537
15:23:37.241;0.4321;0.976;2.537
15:23:37.740;0.4314;0.988;2.538
15:23:38.241;0.4316;0.987;2.537
15:23:38.741;0.4315;0.985;2.538
15:23:39.240;0.4322;0.988;2.538
15:23:39.740;0.4318;0.981;2.538
15:23:40.241;0.4318;0.976;2.537
15:23:40.740;0.4318;0.98;2.536
15:23:41.240;0.4317;0.98;2.537
15:23:41.740;0.432;0.982;2.537
15:23:42.241;0.4314;0.979;2.538
15:23:42.742;0.4318;0.982;2.538
15:23:43.242;0.4319;0.987;2.538
15:23:43.741;0.4322;0.977;2.538
15:23:44.242;0.4319;0.981;2.537
15:23:44.742;0.4321;0.979;2.535
15:23:45.242;0.4324;0.983;2.539
15:23:45.741;0.4323;0.973;2.538
15:23:46.242;0.432;0.979;2.538
15:23:46.742;0.4321;0.98;2.538
15:23:47.242;0.4318;0.979;2.536
15:23:47.741;0.4324;0.982;2.538
15:23:48.241;0.4321;0.984;2.537
15:23:48.741;0.4317;0.982;2.537
15:23:49.240;0.432;0.981;2.538
15:23:49.740;0.432;0.981;2.537
15:23:50.240;0.4316;0.977;2.537
15:23:50.740;0.4319;0.985;2.538
15:23:51.241;0.4319;0.978;2.538
15:23:51.741;0.4323;0.981;2.538
15:23:52.241;0.4321;0.979;2.537
15:23:52.741;0.4317;0.977;2.538
15:23:53.241;0.432;0.98;2.539
15:23:53.742;0.432;0.972;2.537
15:23:54.240;0.4318;0.979;2.538
15:23:54.740;0.4318;0.987;2.538
15:23:55.241;0.4317;0.986;2.538
15:23:55.742;0.4316;0.981;2.536
15:23:56.241;0.4318;0.977;2.538
15:23:56.741;0.4317;0.982;2.538
15:23:57.240;0.432;0.975;2.537
15:23:57.741;0.4313;0.982;2.537
15:23:58.241;0.431;0.975;2.538
15:23:58.741;0.4314;0.986;2.537
15:23:59.240;0.4314;0.98;2.536
15:23:59.741;0.432;0.984;2.536
15:24:00.242;0.4317;0.978;2.537
15:24:00.741;0.4318;0.981;2.538
15:24:01.241;0.4315;0.974;2.538
15:24:01.741;0.4321;0.982;2.538
15:24:02.242;0.4318;0.975;2.538
15:24:02.742;0.4328;0.983;2.538
15:24:03.241;0.4326;0.984;2.536
15:24:03.741;0.4321;0.981;2.538
15:24:04.242;0.4325;0.972;2.536
15:24:04.742;0.4322;0.979;2.537
15:24:05.242;0.4319;0.975;2.537
15:24:05.741;0.4324;0.975;2.537
15:24:06.241;0.4326;0.977;2.538
15:24:06.741;0.4322;0.984;2.538
15:24:07.242;0.4327;0.983;2.536
15:24:07.741;0.4323;0.977;2.537
15:24:08.241;0.4327;0.974;2.536
15:24:08.741;0.4322;0.978;2.538
15:24:09.241;0.4325;0.975;2.539
15:24:09.740;0.4325;0.983;2.536
15:24:10.240;0.4323;0.972;2.539
15:24:10.740;0.4323;0.98;2.538
15:24:11.240;0.4322;0.975;2.539
15:24:11.741;0.4324;0.973;2.536
